 1 1 1		IN	 	      
 1 1 0		T1	
 1 0 1		T2	
 1 0 0		T2	
 0 1 1		T3	
 0 1 0		T3	
 0 0 1		T3	
 0 0 0          T3
 
 
 
 1 2 4		7		
 1 2 0		3
 1 0 4		5
 1 0 0		1
 0 2 4		6
 0 2 0		2
 0 0 4		4
 0 0 0 		0
 
