########################################################################################################## 
#                         KROUPA IMF  (0.1 -- 100 M_sun)                                     
##########################################################################################################
#               BLUE HORIZONTAL BRANCH at the two lowest metallicities 
#               (Maraston & Thomas 2000; Maraston et al. 2003)
##########################################################################################################
 -2.25  1.000000  0.26251   0.22482   0.26324   0.36360   0.45172   0.42751   0.27943   0.19751   0.14788 
 -2.25  1.500000  0.36206   0.31242   0.36703   0.47396   0.57193   0.53637   0.37115   0.27976   0.21911 
 -2.25  2.000000  0.45146   0.39073   0.45094   0.56785   0.68108   0.63873   0.45650   0.35800   0.28872 
 -2.25  3.000000  0.60455   0.54830   0.62313   0.75346   0.90178   0.85660   0.69110   0.62919   0.57404 
 -2.25  4.000000  0.74806   0.69433   0.78960   0.91598   1.07322   1.00288   0.79749   0.72085   0.65610 
 -2.25  5.000000  0.87975   0.83510   0.95803   1.07216   1.23407   1.13841   0.89425   0.80297   0.72922 
 -2.25  6.000000  1.00283   0.97118   1.12155   1.21995   1.38376   1.26363   0.98397   0.87890   0.79664 
 -2.25  7.000000  1.11900   1.09976   1.27719   1.36087   1.52805   1.38592   1.07156   0.95362   0.86309 
 -2.25  8.000000  1.22983   1.21861   1.41926   1.49329   1.66611   1.50502   1.15895   1.02911   0.93004 
 -2.25  9.000000  1.33590   1.33765   1.55677   1.62280   1.79947   1.61802   1.24126   1.09917   0.99198 
 -2.25 10.000000  1.43297   1.44784   1.67649   1.74165   1.92505   1.72536   1.31802   1.16402   1.04925 
 -2.25 11.000000  1.53139   1.55805   1.77640   1.85345   2.04767   1.83189   1.39476   1.22942   1.10708 
 -2.25 12.000000  1.61773   1.65426   1.88037   1.97026   2.17352   1.94073   1.47206   1.29469   1.16489 
 -2.25 13.000000  1.70964   1.76557   2.01208   2.10129   2.30763   2.05327   1.55112   1.36059   1.22294 
 -2.25 14.000000  1.82087   1.88865   2.16188   2.25026   2.46622   2.19176   1.65041   1.44648   1.29979 
 -2.25 15.000000  1.94187   2.00225   2.30292   2.39971   2.63414   2.34401   1.76506   1.54938   1.39302 
 -1.35  0.000001  0.00106   0.00739   0.02191   0.05140   0.09362   0.13877   0.25813   0.37273   0.40603
 -1.35  0.000100  0.00105   0.00736   0.02181   0.05118   0.09321   0.13817   0.25706   0.37123   0.40439
 -1.35  0.000200  0.00104   0.00722   0.02145   0.05035   0.09173   0.13604   0.25333   0.36600   0.39877
 -1.35  0.000400  0.00101   0.00700   0.02082   0.04893   0.08917   0.13229   0.24669   0.35662   0.38876
 -1.35  0.000600  0.00099   0.00680   0.02028   0.04768   0.08692   0.12901   0.24088   0.34834   0.37991
 -1.35  0.000800  0.00097   0.00664   0.01981   0.04661   0.08500   0.12619   0.23583   0.34122   0.37225
 -1.35  0.001000  0.00095   0.00643   0.01924   0.04529   0.08261   0.12271   0.22964   0.33241   0.36281
 -1.35  0.001500  0.00089   0.00582   0.01751   0.04131   0.07543   0.11220   0.21079   0.30560   0.33398
 -1.35  0.002000  0.00083   0.00401   0.01230   0.02936   0.05390   0.08070   0.15381   0.22442   0.24664
 -1.35  0.002500  0.00076   0.00303   0.00929   0.02217   0.04071   0.06099   0.11676   0.17076   0.18796
 -1.35  0.003000  0.00079   0.00214   0.00582   0.01315   0.02336   0.03362   0.05746   0.08029   0.08555
 -1.35  0.003500  0.00092   0.00198   0.00478   0.01043   0.01813   0.02553   0.04165   0.05753   0.06065
 -1.35  0.004000  0.00131   0.00357   0.01014   0.02341   0.04218   0.06180   0.11122   0.15891   0.17174
 -1.35  0.004500  0.00145   0.00322   0.00816   0.01810   0.03184   0.04540   0.07673   0.10732   0.11411
 -1.35  0.005000  0.00149   0.00221   0.00417   0.00836   0.01383   0.01825   0.02488   0.03212   0.03261
 -1.35  0.005500  0.00172   0.00270   0.00526   0.01045   0.01715   0.02238   0.02978   0.03770   0.03800
 -1.35  0.006000  0.00193   0.00301   0.00615   0.01250   0.02082   0.02768   0.03854   0.04977   0.05067
 -1.35  0.006500  0.00217   0.00332   0.00720   0.01507   0.02555   0.03480   0.05167   0.06846   0.07064
 -1.35  0.007000  0.00245   0.00376   0.00869   0.01857   0.03186   0.04414   0.06915   0.09304   0.09689
 -1.35  0.007500  0.00268   0.00417   0.00994   0.02141   0.03694   0.05148   0.08199   0.11055   0.11538
 -1.35  0.008000  0.00293   0.00460   0.01124   0.02438   0.04228   0.05921   0.09550   0.12878   0.13459
 -1.35  0.008500  0.00327   0.00507   0.01242   0.02696   0.04673   0.06535   0.10473   0.13938   0.14496
 -1.35  0.009000  0.00356   0.00545   0.01336   0.02896   0.05010   0.06984   0.11043   0.14453   0.14939
 -1.35  0.009500  0.00381   0.00578   0.01409   0.03048   0.05259   0.07297   0.11337   0.14563   0.14943
 -1.35  0.010000  0.00407   0.00611   0.01483   0.03199   0.05507   0.07608   0.11623   0.14665   0.14947
 -1.35  0.015000  0.00706   0.00881   0.01877   0.03879   0.06472   0.08589   0.11892   0.14080   0.13952
 -1.35  0.020000  0.01004   0.01156   0.02422   0.04788   0.07672   0.09658   0.11740   0.12615   0.12140
 -1.35  0.025000  0.01291   0.01455   0.02820   0.05335   0.08211   0.09821   0.10645   0.10668   0.10079
 -1.35  0.030000  0.01606   0.01773   0.03351   0.06205   0.09354   0.10888   0.11112   0.10676   0.09981
 -1.35  0.035000  0.01865   0.01990   0.03664   0.06741   0.10130   0.11741   0.11904   0.11402   0.10628
 -1.35  0.040000  0.02116   0.02165   0.03860   0.07053   0.10564   0.12192   0.12303   0.11766   0.10929
 -1.35  0.045000  0.02364   0.02331   0.04041   0.07338   0.10961   0.12603   0.12664   0.12096   0.11200
 -1.35  0.050000  0.02610   0.02489   0.04208   0.07601   0.11324   0.12978   0.12993   0.12395   0.11446
 -1.35  0.055000  0.02854   0.02640   0.04365   0.07846   0.11663   0.13326   0.13296   0.12670   0.11673
 -1.35  0.060000  0.03096   0.02786   0.04513   0.08076   0.11979   0.13650   0.13577   0.12925   0.11881
 -1.35  0.065000  0.03337   0.02926   0.04653   0.08292   0.12278   0.13954   0.13840   0.13164   0.12075
 -1.35  0.070000  0.03576   0.03062   0.04786   0.08498   0.12558   0.14239   0.14085   0.13387   0.12256
 -1.35  0.075000  0.03814   0.03193   0.04913   0.08692   0.12825   0.14510   0.14319   0.13598   0.12426
 -1.35  0.080000  0.04051   0.03321   0.05034   0.08878   0.13079   0.14768   0.14539   0.13797   0.12587
 -1.35  0.085000  0.04287   0.03445   0.05151   0.09056   0.13321   0.15011   0.14748   0.13986   0.12739
 -1.35  0.090000  0.04521   0.03565   0.05262   0.09226   0.13554   0.15245   0.14948   0.14166   0.12883
 -1.35  0.095000  0.04754   0.03682   0.05370   0.09388   0.13774   0.15467   0.15135   0.14336   0.13019
 -1.35  0.100000  0.04986   0.03797   0.05474   0.09546   0.13988   0.15681   0.15317   0.14499   0.13152 
 -1.35  0.200000  0.09034   0.06618   0.08185   0.13248   0.18703   0.20213   0.18871   0.17843   0.16217 
 -1.35  0.300000  0.09716   0.09253   0.10948   0.15456   0.18607   0.16624   0.09164   0.05736   0.04055 
 -1.35  0.400000  0.12293   0.11752   0.14452   0.19139   0.22094   0.19379   0.10527   0.06547   0.04609 
 -1.35  0.500000  0.14698   0.14813   0.18354   0.22998   0.25648   0.22062   0.12035   0.07594   0.05414 
 -1.35  0.600000  0.17224   0.18979   0.22179   0.26380   0.28911   0.24680   0.13717   0.08838   0.06419 
 -1.35  0.700000  0.19020   0.22156   0.24663   0.28249   0.30776   0.26332   0.15089   0.09991   0.07414 
 -1.35  0.800000  0.21247   0.24964   0.27097   0.30707   0.33561   0.28899   0.16957   0.11432   0.08592 
 -1.35  0.900000  0.23297   0.27481   0.29284   0.32933   0.36094   0.31246   0.18729   0.12824   0.09748 
 -1.35  1.000000  0.25390   0.29909   0.31481   0.35286   0.38798   0.33739   0.20550   0.14239   0.10914 
 -1.35  1.500000  0.34697   0.39661   0.41180   0.45917   0.51047   0.45078   0.29100   0.21093   0.16682
 -1.35  2.000000  0.43304   0.48457   0.49824   0.55355   0.62024   0.55366   0.37239   0.27869   0.22542
 -1.35  3.000000  0.60599   0.67736   0.70142   0.75966   0.86342   0.79283   0.60895   0.52055   0.47239
 -1.35  4.000000  0.75960   0.87647   0.91634   0.94898   1.05540   0.95521   0.72647   0.61577   0.55767
 -1.35  5.000000  0.90123   1.07419   1.13522   1.13345   1.23697   1.10530   0.82871   0.69599   0.62904
 -1.35  6.000000  1.03692   1.26011   1.34539   1.31344   1.41348   1.25098   0.93044   0.77662   0.70076
 -1.35  7.000000  1.16826   1.45655   1.55298   1.48814   1.58331   1.38971   1.02566   0.85170   0.76744
 -1.35  8.000000  1.28984   1.62641   1.73345   1.64631   1.74193   1.52304   1.11993   0.92792   0.83558
 -1.35  9.000000  1.42873   1.84160   1.95630   1.83433   1.92627   1.67416   1.22269   1.00915   0.90790
 -1.35 10.000000  1.52180   2.01084   2.12529   1.96906   2.05181   1.77247   1.28463   1.05472   0.94741
 -1.35 11.000000  1.60838   2.12354   2.24958   2.08133   2.16482   1.86699   1.35152   1.10882   0.99573
 -1.35 12.000000  1.71561   2.29657   2.41768   2.22700   2.30951   1.98646   1.42968   1.16993   1.04954
 -1.35 13.000000  1.81480   2.41060   2.51538   2.34512   2.44436   2.10690   1.51748   1.24144   1.11256
 -1.35 14.000000  1.91415   2.56098   2.59254   2.47404   2.59565   2.23896   1.60593   1.30848   1.17081
 -1.35 15.000000  2.04006   2.73278   2.74034   2.64219   2.77769   2.39841   1.71824   1.40192   1.25477
 -0.33  0.000001  0.00104   0.00546   0.01613   0.03781   0.06886   0.10210   0.18943   0.27325   0.29760
 -0.33  0.000100  0.00103   0.00538   0.01593   0.03735   0.06805   0.10093   0.18738   0.27040   0.29455
 -0.33  0.000200  0.00102   0.00526   0.01558   0.03657   0.06663   0.09887   0.18379   0.26539   0.28917
 -0.33  0.000400  0.00100   0.00497   0.01480   0.03478   0.06345   0.09426   0.17570   0.25396   0.27708
 -0.33  0.000600  0.00098   0.00470   0.01402   0.03302   0.06029   0.08967   0.16759   0.24257   0.26492
 -0.33  0.000800  0.00096   0.00436   0.01308   0.03088   0.05646   0.08409   0.15775   0.22871   0.25010
 -0.33  0.001000  0.00094   0.00389   0.01176   0.02788   0.05108   0.07628   0.14387   0.20912   0.22919
 -0.33  0.001500  0.00088   0.00345   0.01045   0.02480   0.04548   0.06799   0.12874   0.18745   0.20570
 -0.33  0.002000  0.00083   0.00299   0.00910   0.02162   0.03968   0.05939   0.11285   0.16461   0.18087
 -0.33  0.002500  0.00078   0.00229   0.00696   0.01650   0.03026   0.04531   0.08644   0.12640   0.13912
 -0.33  0.003000  0.00084   0.00181   0.00522   0.01206   0.02183   0.03224   0.05984   0.08668   0.09465
 -0.33  0.003500  0.00111   0.00193   0.00485   0.01063   0.01858   0.02636   0.04383   0.06083   0.06438
 -0.33  0.004000  0.00145   0.00260   0.00663   0.01442   0.02500   0.03502   0.05578   0.07488   0.07810
 -0.33  0.004500  0.00171   0.00318   0.00836   0.01813   0.03137   0.04375   0.06823   0.09017   0.09347
 -0.33  0.005000  0.00201   0.00352   0.00811   0.01598   0.02581   0.03328   0.04293   0.05190   0.05165
 -0.33  0.005500  0.00211   0.00317   0.00672   0.01337   0.02185   0.02867   0.03877   0.04887   0.04924
 -0.33  0.006000  0.00224   0.00297   0.00527   0.00988   0.01569   0.01990   0.02492   0.03071   0.03060
 -0.33  0.006500  0.00242   0.00309   0.00482   0.00814   0.01211   0.01437   0.01599   0.01851   0.01805
 -0.33  0.007000  0.00271   0.00374   0.00578   0.00857   0.01161   0.01265   0.01242   0.01313   0.01248
 -0.33  0.007500  0.00300   0.00463   0.00759   0.01050   0.01344   0.01396   0.01220   0.01196   0.01120
 -0.33  0.008000  0.00330   0.00559   0.00969   0.01269   0.01544   0.01530   0.01201   0.01095   0.01008
 -0.33  0.008500  0.00365   0.00624   0.01134   0.01523   0.01773   0.01660   0.01197   0.00996   0.00888
 -0.33  0.009000  0.00396   0.00680   0.01277   0.01777   0.02034   0.01822   0.01238   0.00966   0.00838
 -0.33  0.009500  0.00424   0.00729   0.01400   0.02029   0.02329   0.02016   0.01314   0.00978   0.00830
 -0.33  0.010000  0.00453   0.00779   0.01526   0.02301   0.02648   0.02217   0.01389   0.00989   0.00822
 -0.33  0.015000  0.00803   0.01043   0.01746   0.02758   0.03704   0.03850   0.03254   0.02873   0.02566
 -0.33  0.020000  0.01123   0.01167   0.02369   0.04638   0.07146   0.08311   0.08121   0.06973   0.06146
 -0.33  0.025000  0.01462   0.01519   0.02931   0.05381   0.07682   0.08132   0.06774   0.05350   0.04644
 -0.33  0.030000  0.01807   0.01807   0.03306   0.05957   0.08408   0.08863   0.07353   0.05841   0.05099
 -0.33  0.035000  0.01993   0.01974   0.03352   0.05750   0.07945   0.08254   0.06710   0.05381   0.04706
 -0.33  0.040000  0.02138   0.02124   0.03336   0.05403   0.07274   0.07413   0.05859   0.04736   0.04143
 -0.33  0.045000  0.02274   0.02265   0.03321   0.05113   0.06728   0.06742   0.05197   0.04230   0.03701
 -0.33  0.050000  0.02403   0.02397   0.03305   0.04866   0.06274   0.06193   0.04669   0.03824   0.03346
 -0.33  0.055000  0.02533   0.02528   0.03298   0.04664   0.05903   0.05748   0.04248   0.03499   0.03062
 -0.33  0.060000  0.02664   0.02660   0.03299   0.04498   0.05598   0.05385   0.03907   0.03234   0.02831
 -0.33  0.065000  0.02978   0.02918   0.03566   0.04857   0.06071   0.05866   0.04300   0.03573   0.03127
 -0.33  0.070000  0.03327   0.03204   0.03862   0.05257   0.06595   0.06398   0.04736   0.03950   0.03454
 -0.33  0.075000  0.03547   0.03373   0.04051   0.05515   0.06930   0.06736   0.05014   0.04189   0.03663
 -0.33  0.080000  0.03772   0.03544   0.04242   0.05775   0.07268   0.07072   0.05295   0.04433   0.03876
 -0.33  0.085000  0.03984   0.03718   0.04457   0.06028   0.07568   0.07364   0.05532   0.04636   0.04051
 -0.33  0.090000  0.04201   0.03897   0.04676   0.06285   0.07874   0.07654   0.05772   0.04843   0.04230
 -0.33  0.095000  0.04406   0.04071   0.04921   0.06550   0.08154   0.07895   0.05974   0.05013   0.04376
 -0.33  0.100000  0.04613   0.04245   0.05167   0.06814   0.08433   0.08135   0.06175   0.05183   0.04521
 -0.33  0.200000  0.08921   0.08414   0.09747   0.12260   0.14675   0.13793   0.10461   0.08728   0.07623 
 -0.33  0.300000  0.09265   0.12688   0.13493   0.15123   0.16266   0.13552   0.08598   0.06151   0.04879
 -0.33  0.400000  0.11991   0.16844   0.16905   0.18785   0.20051   0.16664   0.09647   0.06448   0.04850
 -0.33  0.500000  0.14645   0.21309   0.20633   0.22369   0.23707   0.19706   0.11214   0.07428   0.05548
 -0.33  0.600000  0.17361   0.26687   0.24991   0.26572   0.27763   0.22351   0.11859   0.07728   0.05729
 -0.33  0.700000  0.19178   0.32725   0.29279   0.29381   0.29947   0.24150   0.12762   0.08277   0.06154
 -0.33  0.800000  0.21538   0.37977   0.33438   0.32786   0.32762   0.25945   0.12513   0.07505   0.05244
 -0.33  0.900000  0.24192   0.43473   0.38038   0.36454   0.36179   0.28789   0.13932   0.08326   0.05810
 -0.33  1.000000  0.26760   0.48303   0.42167   0.39698   0.39483   0.31662   0.15762   0.09578   0.06757
 -0.33  1.500000  0.39114   0.73280   0.64640   0.57378   0.56637   0.45787   0.24596   0.15741   0.11578
 -0.33  2.000000  0.51257   0.97384   0.85927   0.74482   0.73412   0.59688   0.33701   0.22379   0.16983
 -0.33  3.000000  0.73461   1.44384   1.26240   1.08913   1.10346   0.93145   0.62253   0.48190   0.42395
 -0.33  4.000000  0.92840   1.88265   1.62319   1.37281   1.37712   1.15093   0.75964   0.58448   0.51283
 -0.33  5.000000  1.11768   2.29621   1.96197   1.64200   1.63943   1.36336   0.89457   0.68696   0.60213
 -0.33  6.000000  1.29213   2.72067   2.30736   1.91512   1.90228   1.57194   1.02404   0.78306   0.68491
 -0.33  7.000000  1.45304   3.14663   2.63831   2.16853   2.14173   1.75827   1.13638   0.86522   0.75510
 -0.33  8.000000  1.60570   3.56004   2.95566   2.40910   2.36774   1.93292   1.24181   0.94227   0.82091
 -0.33  9.000000  1.74710   4.00525   3.28178   2.64820   2.58744   2.09522   1.33165   1.00385   0.87215
 -0.33 10.000000  1.89806   4.56707   3.65761   2.90642   2.81759   2.26359   1.42521   1.06944   0.92708
 -0.33 11.000000  2.03993   5.12349   4.01611   3.15156   3.03617   2.42441   1.51609   1.13241   0.98050
 -0.33 12.000000  2.19279   5.68307   4.37263   3.39518   3.25194   2.58264   1.60614   1.19559   1.03367
 -0.33 13.000000  2.34278   6.28632   4.74282   3.64415   3.47213   2.74560   1.70120   1.26379   1.09193
 -0.33 14.000000  2.47798   6.83557   5.08083   3.87342   3.67599   2.89691   1.78885   1.32683   1.14597
 -0.33 15.000000  2.59151   7.41429   5.41489   4.09138   3.86571   3.03382   1.86462   1.37984   1.19067
  0.00  0.000001  0.00098   0.00440   0.01306   0.03057   0.05572   0.08298   0.15417   0.22260   0.24262
  0.00  0.000100  0.00097   0.00431   0.01282   0.03003   0.05476   0.08159   0.15176   0.21920   0.23902
  0.00  0.000200  0.00096   0.00411   0.01225   0.02875   0.05249   0.07830   0.14606   0.21121   0.23057
  0.00  0.000400  0.00095   0.00368   0.01105   0.02603   0.04762   0.07125   0.13367   0.19387   0.21209
  0.00  0.000600  0.00093   0.00354   0.01065   0.02511   0.04595   0.06879   0.12923   0.18755   0.20529
  0.00  0.000800  0.00092   0.00341   0.01028   0.02423   0.04436   0.06644   0.12498   0.18150   0.19877
  0.00  0.001000  0.00090   0.00328   0.00990   0.02336   0.04277   0.06409   0.12071   0.17542   0.19219
  0.00  0.001500  0.00086   0.00288   0.00870   0.02053   0.03762   0.05642   0.10668   0.15530   0.17038
  0.00  0.002000  0.00083   0.00226   0.00681   0.01603   0.02933   0.04394   0.08331   0.12155   0.13350
  0.00  0.002500  0.00083   0.00197   0.00591   0.01382   0.02525   0.03771   0.07136   0.10410   0.11429
  0.00  0.003000  0.00097   0.00170   0.00483   0.01104   0.01989   0.02929   0.05394   0.07796   0.08491
  0.00  0.003500  0.00124   0.00199   0.00480   0.01004   0.01711   0.02349   0.03492   0.04612   0.04749
  0.00  0.004000  0.00160   0.00250   0.00599   0.01206   0.01982   0.02612   0.03549   0.04390   0.04402
  0.00  0.004500  0.00193   0.00304   0.00753   0.01514   0.02462   0.03192   0.04238   0.05070   0.05031
  0.00  0.005000  0.00227   0.00342   0.00820   0.01635   0.02646   0.03413   0.04487   0.05356   0.05307
  0.00  0.005500  0.00246   0.00340   0.00770   0.01520   0.02450   0.03152   0.04130   0.04951   0.04909
  0.00  0.006000  0.00262   0.00326   0.00625   0.01162   0.01821   0.02278   0.02801   0.03324   0.03272
  0.00  0.006500  0.00282   0.00351   0.00602   0.00992   0.01438   0.01673   0.01784   0.01975   0.01904
  0.00  0.007000  0.00313   0.00451   0.00787   0.01099   0.01399   0.01447   0.01238   0.01184   0.01103
  0.00  0.007500  0.00339   0.00535   0.00970   0.01294   0.01537   0.01471   0.01102   0.00947   0.00861
  0.00  0.008000  0.00367   0.00628   0.01197   0.01568   0.01760   0.01546   0.01006   0.00776   0.00686
  0.00  0.008500  0.00414   0.00727   0.01632   0.02555   0.02886   0.02085   0.01049   0.00688   0.00574
  0.00  0.009000  0.00453   0.00792   0.01891   0.03214   0.03671   0.02458   0.01114   0.00684   0.00558
  0.00  0.009500  0.00483   0.00829   0.01972   0.03396   0.03943   0.02653   0.01197   0.00733   0.00597
  0.00  0.010000  0.00514   0.00865   0.02051   0.03577   0.04218   0.02852   0.01280   0.00784   0.00637
  0.00  0.015000  0.00917   0.00990   0.01761   0.03086   0.04435   0.04654   0.03659   0.02875   0.02482
  0.00  0.020000  0.01286   0.01215   0.02211   0.04195   0.06340   0.06911   0.05628   0.04364   0.03755
  0.00  0.025000  0.01643   0.01592   0.02761   0.04915   0.06986   0.07123   0.05313   0.04011   0.03456
  0.00  0.030000  0.02378   0.01959   0.02937   0.05188   0.07666   0.08623   0.07905   0.07154   0.06351
  0.00  0.035000  0.02784   0.02284   0.03392   0.05832   0.08468   0.09357   0.08323   0.07409   0.06536
  0.00  0.040000  0.03192   0.02610   0.03844   0.06457   0.09238   0.10048   0.08708   0.07643   0.06707
  0.00  0.045000  0.03601   0.02936   0.04292   0.07064   0.09972   0.10700   0.09063   0.07854   0.06860
  0.00  0.050000  0.04010   0.03260   0.04735   0.07653   0.10677   0.11316   0.09389   0.08047   0.06998
  0.00  0.055000  0.04420   0.03584   0.05175   0.08228   0.11356   0.11903   0.09696   0.08225   0.07126
  0.00  0.060000  0.04825   0.03904   0.05607   0.08782   0.12000   0.12454   0.09973   0.08383   0.07237
  0.00  0.065000  0.05210   0.04170   0.05925   0.09259   0.12643   0.13105   0.10468   0.08789   0.07580
  0.00  0.070000  0.05588   0.04429   0.06230   0.09715   0.13255   0.13725   0.10938   0.09174   0.07905
  0.00  0.075000  0.05965   0.04683   0.06529   0.10159   0.13853   0.14328   0.11396   0.09548   0.08220
  0.00  0.080000  0.06340   0.04934   0.06820   0.10592   0.14436   0.14915   0.11840   0.09911   0.08525
  0.00  0.085000  0.06714   0.05182   0.07106   0.11017   0.15004   0.15489   0.12272   0.10264   0.08823
  0.00  0.090000  0.07085   0.05427   0.07385   0.11431   0.15558   0.16049   0.12693   0.10607   0.09112
  0.00  0.095000  0.07456   0.05668   0.07660   0.11838   0.16103   0.16597   0.13105   0.10943   0.09395
  0.00  0.100000  0.07826   0.05908   0.07931   0.12238   0.16640   0.17136   0.13509   0.11273   0.09672
  0.00  0.200000  0.14257   0.11736   0.13777   0.19558   0.25170   0.24843   0.18476   0.15185   0.13108
  0.00  0.300000  0.16398   0.17246   0.18288   0.23797   0.28335   0.25105   0.15934   0.11874   0.09625
  0.00  0.400000  0.18101   0.22635   0.22333   0.27319   0.30760   0.25273   0.14327   0.09961   0.07725
  0.00  0.500000  0.21316   0.28686   0.27219   0.31651   0.35033   0.28697   0.16240   0.11274   0.08733
  0.00  0.600000  0.24359   0.34787   0.31970   0.35693   0.38956   0.31835   0.17991   0.12474   0.09653
  0.00  0.700000  0.27309   0.40951   0.37152   0.39630   0.42464   0.34466   0.19091   0.12902   0.09733
  0.00  0.800000  0.29978   0.47139   0.42292   0.43397   0.45770   0.36926   0.20101   0.13284   0.09806
  0.00  0.900000  0.32895   0.54482   0.48526   0.48054   0.50139   0.40675   0.22064   0.14671   0.10941
  0.00  1.000000  0.35559   0.61998   0.54860   0.52643   0.54397   0.44350   0.23983   0.16035   0.12066
  0.00  1.500000  0.48541   0.95372   0.82691   0.71341   0.70967   0.58595   0.35499   0.25227   0.20435
  0.00  2.000000  0.60613   1.31040   1.09912   0.90817   0.88979   0.72605   0.43797   0.31293   0.25754
  0.00  3.000000  0.78068   1.99419   1.55943   1.25895   1.24327   1.01851   0.62697   0.46748   0.41055
  0.00  4.000000  0.96845   2.60889   1.99295   1.57869   1.54332   1.24824   0.75193   0.55511   0.48504
  0.00  5.000000  1.15865   3.30892   2.45293   1.90356   1.84249   1.47369   0.87122   0.63810   0.55520
  0.00  6.000000  1.32214   3.95832   2.85674   2.18208   2.09716   1.66614   0.97506   0.71133   0.61726
  0.00  7.000000  1.50280   4.59173   3.27413   2.48758   2.38285   1.88389   1.09430   0.79575   0.68861
  0.00  8.000000  1.69095   5.23179   3.69905   2.80059   2.67627   2.10984   1.22194   0.88775   0.76731
  0.00  9.000000  1.88735   6.10247   4.21527   3.15432   2.99602   2.34717   1.34780   0.97568   0.84175
  0.00 10.000000  2.08372   6.92109   4.70689   3.49796   3.30990   2.58330   1.47616   1.06693   0.91921
  0.00 11.000000  2.27511   7.96939   5.26581   3.86034   3.62965   2.81491   1.59377   1.14811   0.98779
  0.00 12.000000  2.46266   9.01576   5.81250   4.21583   3.94278   3.04202   1.70940   1.22812   1.05498
  0.00 13.000000  2.64625  10.12005   6.37005   4.57407   4.25581   3.26635   1.82131   1.30492   1.11888
  0.00 14.000000  2.83119  11.28566   6.94332   4.93773   4.57348   3.49307   1.93307   1.38168   1.18295
  0.00 15.000000  3.03080  12.60747   7.58417   5.34451   4.92525   3.74135   2.05527   1.46510   1.25241
  0.35  0.000001  0.00143   0.00517   0.01538   0.03615   0.06605   0.09836   0.18316   0.26492   0.28931
  0.35  0.000100  0.00143   0.00511   0.01521   0.03576   0.06535   0.09733   0.18133   0.26237   0.28658
  0.35  0.000200  0.00142   0.00502   0.01495   0.03515   0.06425   0.09571   0.17847   0.25834   0.28223
  0.35  0.000400  0.00141   0.00483   0.01441   0.03390   0.06200   0.09240   0.17258   0.24997   0.27328
  0.35  0.000600  0.00139   0.00467   0.01394   0.03280   0.06000   0.08946   0.16731   0.24250   0.26524
  0.35  0.000800  0.00138   0.00450   0.01346   0.03167   0.05795   0.08643   0.16188   0.23477   0.25692
  0.35  0.001000  0.00137   0.00432   0.01293   0.03044   0.05571   0.08313   0.15593   0.22630   0.24774
  0.35  0.001500  0.00134   0.00333   0.00987   0.02305   0.04205   0.06262   0.11745   0.17071   0.18699
  0.35  0.002000  0.00136   0.00300   0.00883   0.02054   0.03744   0.05567   0.10428   0.15157   0.16597
  0.35  0.002500  0.00163   0.00292   0.00833   0.01909   0.03457   0.05105   0.09427   0.13636   0.14867
  0.35  0.003000  0.00188   0.00284   0.00783   0.01769   0.03172   0.04640   0.08395   0.12055   0.13068
  0.35  0.003500  0.00230   0.00294   0.00747   0.01651   0.02910   0.04181   0.07247   0.10246   0.10972
  0.35  0.004000  0.00297   0.00388   0.00963   0.02058   0.03538   0.04926   0.07731   0.10307   0.10693
  0.35  0.004500  0.00339   0.00443   0.01115   0.02376   0.04076   0.05654   0.08765   0.11550   0.11930
  0.35  0.005000  0.00390   0.00485   0.01103   0.02215   0.03653   0.04864   0.06861   0.08682   0.08797
  0.35  0.005500  0.00414   0.00514   0.00971   0.01668   0.02497   0.03019   0.03488   0.04040   0.03937
  0.35  0.006000  0.00460   0.00621   0.01232   0.01913   0.02593   0.02857   0.02615   0.02686   0.02517
  0.35  0.006500  0.00503   0.00687   0.01409   0.02179   0.02828   0.02873   0.02162   0.01941   0.01713
  0.35  0.007000  0.00530   0.00662   0.01277   0.02180   0.02894   0.02697   0.01754   0.01374   0.01118
  0.35  0.007500  0.00573   0.00822   0.01784   0.03060   0.03801   0.02959   0.01517   0.01099   0.00864
  0.35  0.008000  0.00619   0.00990   0.02374   0.04089   0.04793   0.03222   0.01366   0.00927   0.00708
  0.35  0.008500  0.00694   0.01074   0.02543   0.04396   0.05196   0.03580   0.01565   0.01068   0.00818
  0.35  0.009000  0.00762   0.01150   0.02697   0.04676   0.05567   0.03908   0.01748   0.01197   0.00919
  0.35  0.009500  0.00824   0.01219   0.02837   0.04934   0.05910   0.04211   0.01917   0.01316   0.01013
  0.35  0.010000  0.00888   0.01289   0.02977   0.05192   0.06256   0.04519   0.02092   0.01441   0.01111
  0.35  0.015000  0.01595   0.01920   0.04125   0.07475   0.09700   0.07851   0.04100   0.02868   0.02247
  0.35  0.020000  0.02190   0.02421   0.04903   0.08706   0.11223   0.09374   0.05245   0.03708   0.02949
  0.35  0.025000  0.02905   0.02912   0.05643   0.10013   0.13215   0.11785   0.07192   0.05217   0.04224
  0.35  0.030000  0.03560   0.03366   0.06249   0.10869   0.14270   0.13098   0.08420   0.06224   0.05125
  0.35  0.035000  0.04046   0.03725   0.06639   0.11365   0.14908   0.13839   0.09023   0.06736   0.05574
  0.35  0.040000  0.04500   0.04068   0.06964   0.11741   0.15409   0.14409   0.09435   0.07099   0.05882
  0.35  0.045000  0.04943   0.04395   0.07263   0.12081   0.15863   0.14930   0.09814   0.07434   0.06166
  0.35  0.050000  0.05374   0.04708   0.07538   0.12393   0.16277   0.15409   0.10162   0.07745   0.06432
  0.35  0.055000  0.05796   0.05008   0.07795   0.12679   0.16658   0.15855   0.10487   0.08037   0.06681
  0.35  0.060000  0.06210   0.05297   0.08037   0.12945   0.17015   0.16270   0.10791   0.08313   0.06915
  0.35  0.065000  0.06616   0.05578   0.08265   0.13195   0.17347   0.16662   0.11079   0.08575   0.07139
  0.35  0.070000  0.07014   0.05849   0.08481   0.13428   0.17658   0.17030   0.11351   0.08823   0.07351
  0.35  0.075000  0.07408   0.06113   0.08686   0.13649   0.17952   0.17379   0.11610   0.09061   0.07554
  0.35  0.080000  0.07794   0.06369   0.08882   0.13858   0.18231   0.17712   0.11856   0.09288   0.07748
  0.35  0.085000  0.08176   0.06620   0.09071   0.14058   0.18498   0.18031   0.12093   0.09507   0.07935
  0.35  0.090000  0.08552   0.06864   0.09251   0.14247   0.18750   0.18337   0.12320   0.09717   0.08116
  0.35  0.095000  0.08923   0.07102   0.09423   0.14427   0.18992   0.18627   0.12536   0.09920   0.08289
  0.35  0.100000  0.09290   0.07334   0.09590   0.14599   0.19220   0.18904   0.12744   0.10114   0.08456
  0.35  0.200000  0.16486   0.14230   0.14988   0.20977   0.26847   0.26120   0.17996   0.14534   0.12285
  0.35  0.300000  0.15804   0.22232   0.20950   0.25608   0.28858   0.21929   0.10716   0.07277   0.05610
  0.35  0.400000  0.19061   0.30642   0.26953   0.30292   0.33223   0.25263   0.12453   0.08497   0.06571
  0.35  0.500000  0.22317   0.40054   0.34135   0.35553   0.37893   0.28676   0.14229   0.09729   0.07537
  0.35  0.600000  0.25382   0.49785   0.41920   0.40943   0.42562   0.32046   0.15908   0.10886   0.08449
  0.35  0.700000  0.27865   0.59419   0.49824   0.45941   0.46375   0.34741   0.17316   0.11854   0.09238
  0.35  0.800000  0.31028   0.70053   0.58888   0.53347   0.53366   0.39916   0.18081   0.12247   0.09473
  0.35  0.900000  0.31814   0.79884   0.65352   0.56533   0.55119   0.40695   0.18490   0.12503   0.09694
  0.35  1.000000  0.34815   0.91065   0.73437   0.62097   0.59989   0.44376   0.20428   0.13853   0.10770
  0.35  1.500000  0.48078   1.47486   1.10487   0.87981   0.83774   0.62585   0.28118   0.19330   0.14935
  0.35  2.000000  0.60451   2.07254   1.47443   1.12643   1.06175   0.79877   0.35271   0.24483   0.18832
  0.35  3.000000  0.82865   2.96729   2.04644   1.55039   1.47979   1.16509   0.61841   0.45331   0.37844
  0.35  4.000000  1.04517   4.11661   2.70633   1.99187   1.87318   1.45432   0.74745   0.54173   0.44922
  0.35  5.000000  1.24306   5.19072   3.29843   2.38445   2.22243   1.71233   0.86486   0.62337   0.51498
  0.35  6.000000  1.43794   6.38330   3.92000   2.78795   2.57659   1.97045   0.98086   0.70341   0.57922
  0.35  7.000000  1.64696   7.55349   4.53678   3.20087   2.94705   2.24713   1.11078   0.79467   0.65341
  0.35  8.000000  1.86068   8.77196   5.17436   3.62691   3.32672   2.52916   1.24376   0.88833   0.73022
  0.35  9.000000  2.08839  10.08597   5.84464   4.07678   3.73283   2.83268   1.38637   0.98937   0.81268
  0.35 10.000000  2.30730  11.69977   6.58351   4.54211   4.13635   3.12448   1.51711   1.07979   0.88605
  0.35 11.000000  2.52077  13.69970   7.41910   5.03815   4.55482   3.41626   1.63874   1.16239   0.95207
  0.35 12.000000  2.73118  15.49434   8.17736   5.50115   4.95192   3.70010   1.75943   1.24513   1.01872
  0.35 13.000000  2.94079  17.44983   8.97245   5.97243   5.35194   3.98062   1.87478   1.32370   1.08161
  0.35 14.000000  3.15511  19.49187   9.79701   6.46269   5.76466   4.26593   1.99404   1.40493   1.14682
  0.35 15.000000  3.36030  21.58349  10.58965   6.92152   6.15236   4.53985   2.10825   1.48389   1.21094
  0.67  1.000000  0.54183   1.01170   0.83009   0.74873   0.78222   0.69077   0.41059   0.31530   0.26182
  0.67  1.500000  0.69561   1.78157   1.33611   1.11113   1.10205   0.91606   0.48789   0.35728   0.29073
  0.67  2.000000  0.83138   2.65397   1.86942   1.46928   1.40470   1.11867   0.55130   0.39032   0.31309
  0.67  3.000000  1.00101   4.82063   2.95212   2.13072   1.92985   1.45469   0.62237   0.41799   0.32590
  0.67  4.000000  1.14219   6.78628   3.76678   2.59380   2.29748   1.69843   0.69421   0.45921   0.35528
  0.67  5.000000  1.24416   7.58494   4.16375   2.85926   2.53219   1.86782   0.75421   0.49684   0.38389
  0.67  6.000000  1.39403   8.75121   4.67957   3.18660   2.81560   2.07853   0.84513   0.55806   0.43208
  0.67  7.000000  1.55571  10.09297   5.24131   3.53634   3.11621   2.30245   0.94308   0.62447   0.48461
  0.67  8.000000  1.72709  11.97097   5.99840   3.98324   3.48326   2.55846   1.04219   0.68933   0.53553
  0.67  9.000000  1.91397  14.38206   6.89813   4.49467   3.89442   2.84068   1.14873   0.75860   0.59006
  0.67 10.000000  2.12192  17.57736   7.98134   5.08522   4.36056   3.15511   1.26583   0.83463   0.64991
  0.67 11.000000  2.28367  19.68009   8.70643   5.49011   4.68840   3.38396   1.35936   0.89788   0.70071
  0.67 12.000000  2.45654  22.12591   9.50134   5.92365   5.03663   3.62532   1.45863   0.96521   0.75499
  0.67 13.000000  2.62361  24.57179  10.26795   6.33716   5.37213   3.86112   1.55494   1.03093   0.80797
  0.67 14.000000  2.77358  26.71243  10.92688   6.69217   5.67149   4.07694   1.64197   1.09067   0.85595
  0.67 15.000000  2.91999  28.93339  11.62997   7.07372   5.99083   4.30356   1.73025   1.15054   0.90362
