#IMF [M/H]    Age      U      B      V      R      I      J      H      K     U-V    B-V    V-R    V-I    V-J    V-H     V-K      (M/L)U   (M/L)B   (M/L)V   (M/L)R   (M/L)I   (M/L)J   (M/L)H   (M/L)K  F439W  F555W  F675W F814W 439-555 555-675 555-814
#=========================================================================================================================================================================================================================================================
1.30 -2.3152  0.0631   2.576  3.180  3.308  3.332  3.367  3.410  3.339  3.320 -0.731 -0.127 -0.024 -0.059 -0.102 -0.032 -0.012    0.030    0.061    0.121    0.173    0.238    0.370	0.465	 0.482  3.184  3.300  3.338  3.363 -0.116 -0.038 -0.063
1.30 -2.3152  0.0708   2.662  3.241  3.359  3.377  3.403  3.429  3.347  3.326 -0.696 -0.117 -0.018 -0.044 -0.070  0.011  0.033    0.032    0.064    0.126    0.179    0.244    0.374	0.466	 0.482  3.246  3.352  3.382  3.400 -0.107 -0.030 -0.048
1.30 -2.3152  0.0794   2.745  3.299  3.405  3.418  3.434  3.443  3.351  3.327 -0.660 -0.106 -0.012 -0.029 -0.038  0.055  0.079    0.035    0.067    0.131    0.185    0.250    0.377	0.464	 0.479  3.303  3.400  3.421  3.432 -0.096 -0.022 -0.033
1.30 -2.3152  0.0891   2.824  3.355  3.451  3.457  3.464  3.456  3.353  3.327 -0.627 -0.096 -0.006 -0.013 -0.005  0.098  0.124    0.037    0.070    0.136    0.190    0.255    0.379	0.462	 0.476  3.360  3.446  3.459  3.464 -0.086 -0.013 -0.018
1.30 -2.3152  0.1000   2.917  3.427  3.512  3.513  3.511  3.490  3.379  3.352 -0.595 -0.085  0.000  0.001  0.023  0.134  0.160    0.040    0.074    0.143    0.199    0.265    0.388	0.470	 0.484  3.431  3.508  3.513  3.511 -0.077 -0.006 -0.004
1.30 -2.3152  0.1122   2.994  3.482  3.555  3.547  3.534  3.491  3.367  3.338 -0.561 -0.073  0.008  0.020  0.063  0.188  0.217    0.043    0.078    0.147    0.204    0.268    0.386	0.461	 0.474  3.486  3.551  3.546  3.536 -0.065  0.005  0.015
1.30 -2.3152  0.1259   3.069  3.537  3.597  3.580  3.555  3.489  3.348  3.317 -0.528 -0.060  0.017  0.042  0.108  0.249  0.280    0.046    0.081    0.152    0.208    0.271    0.381	0.450	 0.461  3.541  3.594  3.577  3.558 -0.053  0.017  0.036
1.30 -2.3152  0.1413   3.157  3.599  3.648  3.624  3.589  3.506  3.353  3.319 -0.491 -0.049  0.024  0.059  0.142  0.295  0.329    0.049    0.085    0.158    0.215    0.278    0.385	0.448	 0.458  3.604  3.646  3.618  3.593 -0.042  0.027  0.053
1.30 -2.3152  0.1585   3.166  3.451  3.157  2.848  2.491  1.927  1.389  1.271  0.009  0.294  0.309  0.667  1.230  1.768  1.886    0.049    0.074    0.100    0.105    0.100    0.089	0.073	 0.069  3.474  3.166  2.785  2.517  0.308  0.381  0.648
1.30 -2.3152  0.1778   3.248  3.503  3.190  2.872  2.506  1.933  1.389  1.269  0.058  0.313  0.319  0.685  1.258  1.802  1.922    0.053    0.077    0.102    0.106    0.101    0.089	0.073	 0.068  3.526  3.199  2.807  2.533  0.327  0.392  0.667
1.30 -2.3152  0.1995   3.329  3.556  3.226  2.897  2.522  1.940  1.390  1.268  0.104  0.331  0.328  0.703  1.286  1.836  1.957    0.056    0.080    0.105    0.108    0.102    0.089	0.072	 0.068  3.580  3.235  2.831  2.550  0.345  0.404  0.685
1.30 -2.3152  0.2239   3.415  3.614  3.264  2.926  2.542  1.949  1.393  1.269  0.150  0.349  0.339  0.723  1.316  1.872  1.995    0.060    0.084    0.108    0.110    0.103    0.089	0.072	 0.067  3.639  3.274  2.858  2.570  0.365  0.416  0.705
1.30 -2.3152  0.2512   3.500  3.673  3.306  2.957  2.564  1.961  1.398  1.273  0.194  0.367  0.349  0.742  1.345  1.908  2.033    0.065    0.088    0.111    0.112    0.104    0.089	0.071	 0.067  3.699  3.316  2.888  2.592  0.383  0.428  0.724
1.30 -2.3152  0.2818   3.606  3.752  3.361  3.000  2.595  1.980  1.409  1.282  0.245  0.391  0.361  0.766  1.382  1.952  2.080    0.071    0.094    0.116    0.116    0.106    0.090	0.072	 0.067  3.780  3.372  2.928  2.624  0.408  0.444  0.748
1.30 -2.3152  0.3162   3.704  3.839  3.467  3.120  2.727  2.123  1.560  1.434  0.237  0.372  0.347  0.740  1.344  1.907  2.033    0.077    0.101    0.127    0.129    0.119    0.102	0.082	 0.077  3.865  3.477  3.051  2.755  0.387  0.427  0.722
1.30 -2.3152  0.3548   3.798  3.909  3.537  3.195  2.805  2.205  1.645  1.520  0.261  0.372  0.343  0.733  1.333  1.893  2.018    0.083    0.107    0.134    0.137    0.127    0.109	0.088	 0.082  3.934  3.548  3.126  2.833  0.386  0.422  0.715
1.30 -2.3152  0.3981   3.901  3.992  3.621  3.282  2.895  2.297  1.739  1.614  0.280  0.371  0.340  0.727  1.324  1.882  2.007    0.091    0.114    0.144    0.147    0.137    0.118	0.095	 0.089  4.017  3.632  3.214  2.923  0.385  0.418  0.709
1.30 -2.3152  0.4467   4.028  4.119  3.768  3.445  3.073  2.492  1.946  1.824  0.261  0.351  0.323  0.695  1.276  1.821  1.944    0.101    0.127    0.163    0.169    0.160    0.140	0.114	 0.107  4.141  3.778  3.379  3.100  0.363  0.399  0.678
1.30 -2.3152  0.5012   4.107  4.186  3.832  3.511  3.141  2.566  2.026  1.905  0.275  0.354  0.322  0.691  1.266  1.806  1.927    0.108    0.135    0.172    0.179    0.169    0.149	0.122	 0.115  4.208  3.843  3.445  3.169  0.365  0.398  0.674
1.30 -2.3152  0.5623   4.187  4.258  3.899  3.578  3.210  2.640  2.105  1.985  0.287  0.359  0.321  0.689  1.259  1.794  1.914    0.115    0.143    0.182    0.189    0.179    0.158	0.130	 0.123  4.280  3.911  3.513  3.238  0.369  0.398  0.673
1.30 -2.3152  0.6310   4.269  4.336  3.970  3.648  3.280  2.714  2.184  2.065  0.299  0.365  0.323  0.691  1.256  1.786  1.905    0.124    0.152    0.193    0.200    0.189    0.168	0.138	 0.131  4.358  3.982  3.582  3.307  0.375  0.400  0.675
1.30 -2.3152  0.7079   4.368  4.430  4.058  3.733  3.363  2.800  2.271  2.153  0.311  0.372  0.325  0.695  1.258  1.787  1.905    0.134    0.165    0.207    0.214    0.203    0.181	0.149	 0.141  4.452  4.070  3.667  3.391  0.382  0.403  0.679
1.30 -2.3152  0.7943   4.487  4.552  4.190  3.874  3.513  2.963  2.445  2.329  0.298  0.362  0.316  0.677  1.227  1.745  1.860    0.149    0.183    0.232    0.242    0.231    0.208	0.173	 0.164  4.572  4.202  3.809  3.540  0.370  0.393  0.662
1.30 -2.3152  0.8913   4.573  4.633  4.266  3.951  3.590  3.046  2.532  2.417  0.307  0.366  0.316  0.676  1.220  1.735  1.849    0.160    0.196    0.247    0.258    0.247    0.223	0.187	 0.177  4.653  4.279  3.886  3.618  0.374  0.393  0.661
1.30 -2.3152  1.0000   4.646  4.700  4.325  4.009  3.650  3.113  2.606  2.494  0.320  0.375  0.316  0.676  1.212  1.719  1.832    0.170    0.207    0.259    0.270    0.259    0.236	0.198	 0.189  4.721  4.339  3.944  3.678  0.382  0.395  0.661
1.30 -2.3152  1.1220   4.733  4.763  4.335  3.993  3.614  3.057  2.545  2.433  0.398  0.428  0.342  0.721  1.278  1.790  1.902    0.183    0.217    0.260    0.264    0.248    0.222	0.186	 0.177  4.786  4.350  3.923  3.643  0.436  0.427  0.707
1.30 -2.3152  1.2589   4.853  4.833  4.308  3.912  3.493  2.887  2.351  2.235  0.546  0.526  0.395  0.815  1.420  1.956  2.072    0.202    0.230    0.251    0.243    0.220    0.188	0.154	 0.146  4.865  4.325  3.834  3.524  0.540  0.490  0.800
1.30 -2.3152  1.4125   5.103  5.109  4.644  4.284  3.895  3.324  2.818  2.710  0.460  0.465  0.360  0.749  1.319  1.825  1.933    0.252    0.294    0.339    0.339    0.316    0.279	0.235	 0.224  5.135  4.660  4.212  3.925  0.475  0.448  0.735
1.30 -2.3152  1.5849   5.176  5.176  4.700  4.337  3.945  3.375  2.874  2.768  0.476  0.476  0.363  0.754  1.325  1.826  1.932    0.268    0.310    0.354    0.354    0.328    0.290	0.246	 0.235  5.203  4.717  4.264  3.976  0.486  0.453  0.741
1.30 -2.3152  1.7783   5.298  5.296  4.807  4.438  4.042  3.468  2.970  2.866  0.491  0.490  0.368  0.765  1.338  1.836  1.941    0.297    0.344    0.388    0.385    0.356    0.314	0.266	 0.255  5.324  4.824  4.365  4.073  0.499  0.460  0.751
1.30 -2.3152  1.9953   5.439  5.441  4.953  4.588  4.194  3.626  3.133  3.031  0.486  0.488  0.365  0.759  1.327  1.820  1.923    0.336    0.390    0.441    0.439    0.407    0.361	0.307	 0.295  5.468  4.971  4.515  4.226  0.497  0.456  0.745
1.30 -2.3152  2.2387   5.548  5.554  5.060  4.693  4.299  3.732  3.241  3.140  0.489  0.494  0.366  0.761  1.328  1.818  1.920    0.370    0.430    0.483    0.481    0.445    0.395	0.337	 0.324  5.580  5.078  4.620  4.330  0.503  0.458  0.748
1.30 -2.3152  2.5119   5.657  5.675  5.191  4.831  4.443  3.888  3.406  3.307  0.467  0.485  0.359  0.748  1.303  1.784  1.883    0.406    0.478    0.541    0.542    0.505    0.453	0.390	 0.376  5.701  5.209  4.759  4.475  0.492  0.450  0.734
1.30 -2.3152  2.8184   5.762  5.789  5.295  4.933  4.543  3.990  3.511  3.413  0.467  0.493  0.363  0.753  1.306  1.784  1.882    0.444    0.527    0.593    0.592    0.551    0.495	0.427	 0.412  5.815  5.314  4.860  4.575  0.500  0.454  0.740
1.30 -2.3152  3.1623   5.853  5.890  5.391  5.028  4.638  4.089  3.615  3.518  0.462  0.499  0.364  0.754  1.302  1.777  1.873    0.480    0.575    0.644    0.642    0.597    0.539	0.467	 0.451  5.916  5.411  4.955  4.670  0.505  0.456  0.741
1.30 -2.3152  3.5481   5.946  5.993  5.484  5.117  4.725  4.179  3.707  3.612  0.462  0.508  0.367  0.759  1.306  1.777  1.872    0.520    0.628    0.697    0.693    0.643    0.582	0.505	 0.488  6.019  5.504  5.044  4.758  0.515  0.460  0.747
1.30 -2.3152  3.9811   6.057  6.111  5.590  5.218  4.824  4.277  3.808  3.713  0.466  0.521  0.372  0.767  1.313  1.783  1.877    0.572    0.697    0.764    0.757    0.701    0.633	0.551	 0.533  6.139  5.611  5.145  4.857  0.528  0.466  0.754
1.30 -2.3152  4.4668   6.169  6.233  5.703  5.327  4.930  4.387  3.919  3.826  0.467  0.530  0.376  0.772  1.316  1.783  1.877    0.632    0.775    0.843    0.832    0.768    0.697	0.607	 0.588  6.260  5.724  5.253  4.964  0.537  0.471  0.760
1.30 -2.3152  5.0119   6.281  6.351  5.814  5.435  5.037  4.498  4.033  3.941  0.467  0.537  0.379  0.777  1.316  1.781  1.873    0.696    0.860    0.928    0.913    0.843    0.767	0.671	 0.650  6.380  5.836  5.360  5.071  0.544  0.475  0.765
1.30 -2.3152  5.6234   6.378  6.456  5.910  5.526  5.125  4.590  4.127  4.036  0.468  0.546  0.383  0.785  1.319  1.783  1.874    0.757    0.941    1.008    0.988    0.909    0.831	0.727	 0.706  6.484  5.932  5.451  5.160  0.552  0.481  0.773
1.30 -2.3152  6.3096   6.497  6.579  6.024  5.636  5.232  4.700  4.238  4.148  0.473  0.555  0.388  0.792  1.324  1.786  1.876    0.840    1.049    1.115    1.087    0.998    0.914	0.802	 0.778  6.608  6.047  5.561  5.267  0.561  0.487  0.780
1.30 -2.3152  7.0795   6.604  6.688  6.127  5.736  5.330  4.801  4.341  4.252  0.476  0.561  0.391  0.798  1.326  1.786  1.875    0.922    1.154    1.219    1.186    1.086    0.998	0.876	 0.852  6.718  6.151  5.660  5.365  0.567  0.491  0.785
1.30 -2.3152  7.9433   6.711  6.797  6.228  5.833  5.425  4.897  4.437  4.349  0.483  0.569  0.395  0.804  1.331  1.791  1.879    1.013    1.269    1.331    1.290    1.179    1.085	0.953	 0.927  6.827  6.252  5.757  5.461  0.575  0.495  0.792
1.30 -2.3152  8.9125   6.821  6.911  6.338  5.941  5.532  5.006  4.549  4.461  0.484  0.574  0.397  0.806  1.331  1.789  1.876    1.116    1.403    1.465    1.417    1.295    1.194	1.051	 1.023  6.942  6.362  5.864  5.568  0.580  0.498  0.793
1.30 -2.3152 10.0000   6.948  7.040  6.466  6.069  5.663  5.143  4.689  4.603  0.482  0.574  0.397  0.803  1.323  1.777  1.863    1.249    1.573    1.642    1.589    1.456    1.348	1.190	 1.160  7.071  6.491  5.993  5.700  0.580  0.497  0.791
1.30 -2.3152 11.2202   7.017  7.101  6.520  6.120  5.712  5.190  4.733  4.646  0.497  0.581  0.400  0.807  1.330  1.787  1.873    1.324    1.657    1.718    1.658    1.517    1.402	1.235	 1.203  7.132  6.545  6.044  5.750  0.588  0.501  0.795
1.30 -2.3152 12.5893   7.107  7.190  6.613  6.215  5.808  5.289  4.833  4.747  0.493  0.576  0.398  0.805  1.324  1.780  1.866    1.424    1.780    1.855    1.792    1.641    1.521	1.341	 1.307  7.221  6.638  6.139  5.846  0.582  0.499  0.792
1.30 -2.3152 14.1254   7.254  7.338  6.767  6.371  5.966  5.453  5.000  4.916  0.487  0.571  0.396  0.801  1.315  1.767  1.851    1.611    2.015    2.110    2.042    1.874    1.746	1.544	 1.507  7.369  6.792  6.296  6.005  0.576  0.496  0.787
1.30 -2.3152 15.8489   7.352  7.431  6.863  6.467  6.063  5.550  5.097  5.013  0.489  0.568  0.396  0.800  1.313  1.765  1.850    1.741    2.167    2.275    2.203    2.023    1.885	1.668	 1.628  7.462  6.888  6.393  6.103  0.573  0.495  0.786
1.30 -2.3152 17.7828   7.420  7.499  6.936  6.540  6.135  5.620  5.165  5.080  0.485  0.563  0.396  0.800  1.316  1.771  1.856    1.824    2.270    2.394    2.318    2.127    1.978	1.746	 1.704  7.530  6.961  6.466  6.175  0.569  0.495  0.786
1.30 -1.7129  0.0631   2.474  2.958  3.002  2.967  2.919  2.799  2.610  2.576 -0.528 -0.043  0.035  0.083  0.203  0.392  0.425    0.028    0.050    0.092    0.124    0.158    0.212	0.239	 0.245  2.964  2.999  2.958  2.923 -0.036  0.041  0.076
1.30 -1.7129  0.0708   2.576  3.044  3.080  3.041  2.988  2.860  2.665  2.630 -0.505 -0.036  0.039  0.093  0.221  0.416  0.451    0.030    0.054    0.098    0.132    0.167    0.223	0.250	 0.255  3.049  3.078  3.032  2.993 -0.029  0.047  0.085
1.30 -1.7129  0.0794   2.668  3.116  3.142  3.097  3.037  2.898  2.697  2.662 -0.474 -0.026  0.045  0.105  0.244  0.445  0.480    0.033    0.057    0.103    0.138    0.174    0.230	0.256	 0.261  3.121  3.141  3.087  3.042 -0.020  0.054  0.098
1.30 -1.7129  0.0891   2.754  3.182  3.198  3.146  3.076  2.923  2.710  2.673 -0.444 -0.016  0.052  0.122  0.275  0.488  0.525    0.035    0.060    0.108    0.144    0.179    0.233	0.257	 0.262  3.188  3.197  3.134  3.083 -0.009  0.063  0.115
1.30 -1.7129  0.1000   2.853  3.262  3.267  3.208  3.128  2.961  2.737  2.698 -0.414 -0.005  0.059  0.139  0.306  0.530  0.569    0.038    0.064    0.114    0.151    0.187    0.240	0.262	 0.266  3.268  3.267  3.194  3.136  0.001  0.073  0.131
1.30 -1.7129  0.1122   2.901  3.172  2.893  2.590  2.237  1.659  1.095  0.979  0.008  0.279  0.303  0.656  1.234  1.798  1.914    0.040    0.059    0.081    0.085    0.082    0.072	0.057	 0.054  3.194  2.901  2.529  2.263  0.293  0.372  0.638
1.30 -1.7129  0.1259   3.006  3.245  2.936  2.615  2.244  1.646  1.068  0.949  0.070  0.309  0.321  0.692  1.290  1.868  1.987    0.043    0.062    0.083    0.086    0.082    0.070	0.056	 0.052  3.268  2.945  2.550  2.271  0.323  0.395  0.674
1.30 -1.7129  0.1413   3.103  3.316  2.993  2.665  2.286  1.677  1.093  0.971  0.110  0.323  0.329  0.707  1.316  1.901  2.023    0.047    0.066    0.087    0.090    0.084    0.072	0.056	 0.053  3.340  3.002  2.598  2.314  0.337  0.404  0.689
1.30 -1.7129  0.1585   3.206  3.391  3.046  2.704  2.314  1.689  1.093  0.968  0.159  0.345  0.342  0.733  1.358  1.953  2.078    0.051    0.070    0.091    0.092    0.086    0.072	0.056	 0.053  3.416  3.056  2.635  2.342  0.360  0.421  0.714
1.30 -1.7129  0.1778   3.303  3.467  3.110  2.760  2.363  1.727  1.125  0.997  0.193  0.357  0.349  0.747  1.383  1.985  2.113    0.056    0.075    0.095    0.096    0.089    0.074	0.057	 0.054  3.492  3.120  2.690  2.391  0.372  0.429  0.728
1.30 -1.7129  0.1995   3.398  3.543  3.170  2.811  2.403  1.754  1.142  1.011  0.228  0.373  0.359  0.767  1.416  2.028  2.159    0.060    0.080    0.100    0.100    0.092    0.075	0.058	 0.054  3.569  3.181  2.739  2.432  0.389  0.442  0.748
1.30 -1.7129  0.2239   3.503  3.639  3.267  2.909  2.501  1.849  1.235  1.102  0.236  0.373  0.358  0.766  1.418  2.032  2.164    0.066    0.086    0.109    0.109    0.100    0.082	0.062	 0.058  3.665  3.278  2.838  2.530  0.387  0.440  0.747
1.30 -1.7129  0.2512   3.592  3.721  3.355  3.003  2.599  1.952  1.340  1.207  0.237  0.366  0.351  0.755  1.403  2.015  2.147    0.071    0.092    0.117    0.118    0.108    0.089	0.068	 0.064  3.745  3.366  2.933  2.629  0.380  0.433  0.737
1.30 -1.7129  0.2818   3.685  3.812  3.456  3.114  2.717  2.076  1.468  1.335  0.228  0.355  0.343  0.740  1.380  1.988  2.121    0.077    0.100    0.127    0.129    0.120    0.099	0.076	 0.071  3.835  3.467  3.045  2.746  0.368  0.422  0.721
1.30 -1.7129  0.3162   3.787  3.918  3.577  3.247  2.863  2.238  1.640  1.509  0.210  0.340  0.330  0.715  1.340  1.937  2.069    0.084    0.109    0.141    0.145    0.136    0.114	0.088	 0.083  3.940  3.589  3.181  2.892  0.351  0.408  0.697
1.30 -1.7129  0.3548   3.878  3.998  3.650  3.317  2.932  2.310  1.715  1.585  0.229  0.348  0.332  0.717  1.340  1.934  2.065    0.090    0.116    0.150    0.154    0.144    0.121	0.094	 0.088  4.020  3.661  3.250  2.961  0.358  0.411  0.700
1.30 -1.7129  0.3981   3.980  4.087  3.730  3.394  3.007  2.386  1.793  1.664  0.250  0.358  0.336  0.722  1.344  1.936  2.066    0.098    0.126    0.160    0.164    0.153    0.129	0.100	 0.094  4.110  3.742  3.327  3.037  0.368  0.415  0.705
1.30 -1.7129  0.4467   4.085  4.181  3.817  3.479  3.091  2.470  1.878  1.748  0.268  0.364  0.338  0.726  1.347  1.939  2.069    0.107    0.136    0.172    0.176    0.164    0.138	0.107	 0.101  4.203  3.829  3.411  3.120  0.374  0.418  0.709
1.30 -1.7129  0.5012   4.188  4.277  3.917  3.585  3.204  2.596  2.013  1.885  0.270  0.360  0.332  0.714  1.321  1.905  2.032    0.117    0.147    0.187    0.192    0.180    0.154	0.121	 0.113  4.299  3.930  3.519  3.233  0.369  0.411  0.697
1.30 -1.7129  0.5623   4.296  4.370  4.000  3.665  3.281  2.675  2.093  1.966  0.296  0.370  0.335  0.719  1.325  1.907  2.033    0.128    0.159    0.200    0.205    0.192    0.164	0.129	 0.121  4.391  4.013  3.597  3.310  0.378  0.416  0.703
1.30 -1.7129  0.6310   4.429  4.483  4.094  3.751  3.362  2.751  2.170  2.043  0.335  0.389  0.343  0.732  1.343  1.924  2.051    0.144    0.175    0.217    0.221    0.205    0.175	0.137	 0.129  4.506  4.108  3.683  3.392  0.398  0.425  0.715
1.30 -1.7129  0.7079   4.548  4.591  4.195  3.855  3.472  2.871  2.303  2.180  0.353  0.396  0.340  0.723  1.324  1.892  2.015    0.159    0.192    0.236    0.241    0.225    0.194	0.154	 0.145  4.613  4.209  3.787  3.502  0.404  0.422  0.707
1.30 -1.7129  0.7943   4.659  4.686  4.274  3.927  3.541  2.938  2.373  2.252  0.386  0.412  0.347  0.733  1.336  1.900  2.022    0.175    0.208    0.252    0.255    0.238    0.205	0.163	 0.154  4.709  4.288  3.858  3.571  0.420  0.431  0.717
1.30 -1.7129  0.8913   4.780  4.791  4.365  4.013  3.622  3.017  2.458  2.340  0.415  0.426  0.352  0.742  1.347  1.906  2.025    0.195    0.228    0.272    0.275    0.255    0.219	0.175	 0.166  4.814  4.380  3.942  3.653  0.434  0.438  0.727
1.30 -1.7129  1.0000   4.889  4.891  4.455  4.104  3.714  3.113  2.564  2.449  0.434  0.436  0.351  0.741  1.342  1.891  2.006    0.214    0.248    0.294    0.296    0.276    0.237	0.192	 0.182  4.915  4.471  4.033  3.745  0.444  0.438  0.726
1.30 -1.7129  1.1220   4.967  4.950  4.477  4.108  3.704  3.089  2.535  2.421  0.490  0.474  0.369  0.772  1.388  1.942  2.056    0.228    0.260    0.298    0.295    0.271    0.230	0.185	 0.176  4.977  4.494  4.035  3.736  0.483  0.459  0.758
1.30 -1.7129  1.2589   5.048  4.994  4.463  4.062  3.635  2.994  2.425  2.308  0.585  0.532  0.400  0.827  1.469  2.038  2.154    0.243    0.268    0.291    0.281    0.252    0.209	0.166	 0.157  5.026  4.481  3.984  3.669  0.545  0.496  0.812
1.30 -1.7129  1.4125   5.310  5.248  4.749  4.368  3.958  3.337  2.784  2.672  0.562  0.500  0.381  0.790  1.412  1.965  2.077    0.307    0.335    0.375    0.368    0.336    0.284	0.229	 0.218  5.277  4.766  4.293  3.991  0.511  0.473  0.775
1.30 -1.7129  1.5849   5.410  5.342  4.830  4.445  4.034  3.413  2.863  2.752  0.581  0.512  0.385  0.796  1.416  1.966  2.078    0.334    0.363    0.401    0.392    0.358    0.302	0.244	 0.233  5.371  4.848  4.369  4.066  0.523  0.478  0.781
1.30 -1.7129  1.7783   5.512  5.441  4.911  4.519  4.103  3.483  2.935  2.824  0.601  0.530  0.392  0.807  1.428  1.976  2.086    0.364    0.395    0.429    0.417    0.379    0.320	0.259	 0.247  5.471  4.929  4.442  4.136  0.542  0.487  0.793
1.30 -1.7129  1.9953   5.623  5.551  5.009  4.613  4.196  3.579  3.036  2.927  0.615  0.542  0.396  0.813  1.430  1.973  2.082    0.400    0.434    0.466    0.451    0.409    0.347	0.282	 0.269  5.582  5.028  4.535  4.229  0.554  0.493  0.799
1.30 -1.7129  2.2387   5.732  5.663  5.113  4.715  4.297  3.683  3.142  3.034  0.619  0.550  0.398  0.816  1.430  1.971  2.079    0.439    0.477    0.510    0.493    0.446    0.379	0.309	 0.295  5.694  5.133  4.637  4.331  0.561  0.496  0.802
1.30 -1.7129  2.5119   5.842  5.778  5.229  4.833  4.418  3.811  3.276  3.170  0.614  0.549  0.395  0.810  1.418  1.953  2.059    0.483    0.527    0.563    0.545    0.496    0.424	0.347	 0.332  5.809  5.249  4.756  4.452  0.560  0.493  0.797
1.30 -1.7129  2.8184   5.927  5.867  5.320  4.927  4.514  3.912  3.382  3.276  0.607  0.547  0.393  0.806  1.407  1.938  2.043    0.519    0.568    0.608    0.590    0.538    0.462	0.380	 0.364  5.897  5.340  4.850  4.548  0.557  0.490  0.792
1.30 -1.7129  3.1623   6.057  5.998  5.442  5.048  4.635  4.038  3.513  3.410  0.614  0.556  0.395  0.807  1.404  1.929  2.033    0.581    0.637    0.677    0.656    0.597    0.516	0.426	 0.409  6.029  5.463  4.971  4.669  0.566  0.493  0.794
1.30 -1.7129  3.5481   6.183  6.128  5.562  5.163  4.749  4.155  3.633  3.530  0.621  0.566  0.399  0.813  1.407  1.929  2.031    0.648    0.714    0.751    0.725    0.659    0.571	0.473	 0.454  6.159  5.583  5.085  4.783  0.576  0.498  0.800
1.30 -1.7129  3.9811   6.299  6.250  5.676  5.275  4.859  4.272  3.754  3.653  0.623  0.574  0.402  0.817  1.404  1.923  2.023    0.717    0.794    0.829    0.799    0.725    0.632	0.526	 0.506  6.282  5.698  5.197  4.894  0.584  0.502  0.804
1.30 -1.7129  4.4668   6.414  6.371  5.791  5.387  4.970  4.388  3.874  3.774  0.624  0.580  0.404  0.821  1.403  1.917  2.016    0.793    0.882    0.916    0.880    0.798    0.699	0.584	 0.562  6.403  5.813  5.308  5.005  0.590  0.505  0.808
1.30 -1.7129  5.0119   6.518  6.484  5.897  5.491  5.073  4.498  3.987  3.890  0.621  0.587  0.407  0.824  1.400  1.910  2.008    0.868    0.973    1.005    0.963    0.873    0.769	0.644	 0.621  6.517  5.920  5.412  5.109  0.596  0.508  0.812
1.30 -1.7129  5.6234   6.624  6.597  5.999  5.588  5.167  4.593  4.084  3.988  0.625  0.598  0.411  0.832  1.406  1.915  2.011    0.951    1.074    1.097    1.047    0.947    0.834	0.701	 0.676  6.630  6.022  5.508  5.203  0.608  0.514  0.819
1.30 -1.7129  6.3096   6.723  6.714  6.108  5.693  5.272  4.700  4.194  4.099  0.615  0.606  0.414  0.836  1.408  1.914  2.009    1.036    1.189    1.206    1.148    1.037    0.916	0.771	 0.745  6.747  6.131  5.614  5.308  0.616  0.518  0.823
1.30 -1.7129  7.0795   6.817  6.821  6.206  5.789  5.367  4.797  4.295  4.201  0.611  0.614  0.417  0.839  1.409  1.911  2.005    1.124    1.306    1.314    1.248    1.126    0.997	0.842	 0.815  6.855  6.230  5.710  5.404  0.625  0.521  0.826
1.30 -1.7129  7.9433   6.923  6.927  6.303  5.884  5.460  4.891  4.391  4.299  0.620  0.623  0.420  0.843  1.412  1.912  2.004    1.233    1.432    1.429    1.354    1.221    1.081	0.915	 0.887  6.962  6.328  5.804  5.498  0.634  0.524  0.830
1.30 -1.7129  8.9125   7.030  7.032  6.402  5.980  5.557  4.989  4.493  4.401  0.628  0.630  0.422  0.845  1.413  1.910  2.001    1.354    1.571    1.558    1.473    1.328    1.177	1.000	 0.969  7.068  6.427  5.900  5.594  0.641  0.527  0.833
1.30 -1.7129 10.0000   7.151  7.155  6.523  6.101  5.679  5.116  4.625  4.535  0.628  0.632  0.422  0.844  1.407  1.898  1.988    1.506    1.750    1.733    1.639    1.480    1.318	1.124	 1.092  7.191  6.548  6.022  5.717  0.643  0.527  0.831
1.30 -1.7129 11.2202   7.248  7.251  6.615  6.192  5.770  5.208  4.719  4.631  0.633  0.636  0.423  0.845  1.407  1.895  1.984    1.640    1.905    1.878    1.774    1.601    1.428	1.221	 1.187  7.288  6.641  6.112  5.808  0.647  0.528  0.832
1.30 -1.7129 12.5893   7.346  7.348  6.709  6.285  5.863  5.305  4.819  4.731  0.637  0.639  0.424  0.846  1.404  1.890  1.978    1.782    2.067    2.034    1.920    1.733    1.549	1.328	 1.293  7.385  6.735  6.206  5.902  0.650  0.529  0.833
1.30 -1.7129 14.1254   7.445  7.444  6.812  6.391  5.972  5.421  4.939  4.852  0.633  0.632  0.421  0.839  1.391  1.872  1.959    1.928    2.230    2.207    2.089    1.893    1.703	1.466	 1.428  7.480  6.838  6.312  6.012  0.642  0.525  0.826
1.30 -1.7129 15.8489   7.536  7.533  6.905  6.486  6.068  5.520  5.038  4.951  0.631  0.627  0.420  0.837  1.386  1.867  1.954    2.072    2.390    2.376    2.251    2.040    1.842	1.586	 1.544  7.569  6.931  6.408  6.108  0.637  0.523  0.823
1.30 -1.7129 17.7828   7.634  7.620  7.007  6.591  6.176  5.631  5.149  5.062  0.627  0.613  0.416  0.830  1.376  1.858  1.945    2.231    2.550    2.568    2.442    2.219    2.008	1.728	 1.683  7.656  7.033  6.515  6.217  0.623  0.518  0.816
1.30 -1.3146  0.0631   2.487  2.881  2.833  2.734  2.608  2.352  2.063  2.014 -0.346  0.048  0.099  0.225  0.481  0.769  0.819    0.028    0.047    0.079    0.101    0.119    0.141	0.145	 0.146  2.888  2.835  2.711  2.619  0.053  0.124  0.215
1.30 -1.3146  0.0708   2.578  2.961  2.912  2.815  2.693  2.445  2.167  2.119 -0.334  0.049  0.096  0.219  0.467  0.745  0.792    0.030    0.050    0.084    0.108    0.128    0.152	0.158	 0.160  2.968  2.914  2.793  2.704  0.054  0.121  0.210
1.30 -1.3146  0.0794   2.683  3.055  2.996  2.894  2.765  2.509  2.230  2.182 -0.313  0.059  0.102  0.231  0.487  0.766  0.814    0.033    0.054    0.091    0.115    0.136    0.161	0.167	 0.168  3.062  2.999  2.870  2.777  0.064  0.129  0.222
1.30 -1.3146  0.0891   2.782  3.139  3.068  2.958  2.820  2.553  2.267  2.218 -0.286  0.072  0.110  0.248  0.514  0.800  0.850    0.036    0.058    0.096    0.121    0.142    0.166	0.171	 0.173  3.147  3.071  2.932  2.832  0.076  0.139  0.238
1.30 -1.3146  0.1000   2.883  3.227  3.146  3.031  2.887  2.614  2.323  2.272 -0.264  0.081  0.115  0.260  0.532  0.823  0.874    0.039    0.062    0.103    0.129    0.150    0.175	0.179	 0.180  3.235  3.150  3.004  2.900  0.084  0.146  0.250
1.30 -1.3146  0.1122   2.972  3.228  2.928  2.606  2.229  1.597  0.987  0.855  0.045  0.300  0.321  0.699  1.331  1.941  2.073    0.042    0.062    0.083    0.086    0.081    0.068	0.052	 0.049  3.249  2.937  2.542  2.258  0.311  0.396  0.679
1.30 -1.3146  0.1259   3.070  3.312  3.000  2.672  2.289  1.648  1.032  0.898  0.070  0.312  0.328  0.712  1.353  1.969  2.103    0.046    0.067    0.088    0.091    0.085    0.071	0.054	 0.050  3.334  3.011  2.607  2.318  0.323  0.404  0.692
1.30 -1.3146  0.1413   3.170  3.397  3.065  2.722  2.324  1.663  1.033  0.895  0.105  0.333  0.343  0.741  1.402  2.031  2.169    0.050    0.071    0.093    0.095    0.087    0.071	0.053	 0.050  3.420  3.076  2.654  2.355  0.344  0.422  0.721
1.30 -1.3146  0.1585   3.271  3.483  3.124  2.761  2.342  1.650  1.001  0.857  0.146  0.358  0.364  0.782  1.474  2.124  2.267    0.054    0.077    0.098    0.097    0.088    0.070	0.051	 0.048  3.507  3.136  2.690  2.375  0.371  0.446  0.762
1.30 -1.3146  0.1778   3.383  3.587  3.222  2.853  2.427  1.720  1.062  0.915  0.161  0.365  0.369  0.795  1.502  2.160  2.307    0.060    0.084    0.106    0.105    0.095    0.074	0.054	 0.050  3.611  3.234  2.782  2.460  0.377  0.452  0.774
1.30 -1.3146  0.1995   3.486  3.682  3.324  2.961  2.538  1.831  1.172  1.024  0.162  0.359  0.363  0.786  1.493  2.151  2.300    0.065    0.091    0.116    0.115    0.104    0.081	0.059	 0.055  3.706  3.336  2.891  2.571  0.370  0.445  0.765
1.30 -1.3146  0.2239   3.597  3.786  3.439  3.086  2.669  1.964  1.306  1.157  0.158  0.347  0.353  0.770  1.476  2.133  2.282    0.072    0.099    0.128    0.129    0.117    0.091	0.067	 0.061  3.809  3.451  3.018  2.701  0.358  0.434  0.750
1.30 -1.3146  0.2512   3.685  3.863  3.532  3.193  2.789  2.100  1.452  1.305  0.152  0.331  0.339  0.743  1.432  2.080  2.227    0.077    0.106    0.138    0.141    0.129    0.102	0.076	 0.070  3.884  3.544  3.128  2.821  0.340  0.417  0.723
1.30 -1.3146  0.2818   3.775  3.940  3.615  3.283  2.885  2.202  1.558  1.411  0.160  0.325  0.332  0.730  1.413  2.057  2.204    0.084    0.113    0.148    0.152    0.140    0.112	0.083	 0.076  3.960  3.627  3.218  2.916  0.333  0.409  0.710
1.30 -1.3146  0.3162   3.856  4.009  3.702  3.384  2.997  2.326  1.687  1.540  0.154  0.306  0.319  0.705  1.376  2.016  2.163    0.089    0.119    0.159    0.165    0.154    0.124	0.093	 0.085  4.028  3.714  3.321  3.028  0.314  0.393  0.686
1.30 -1.3146  0.3548   3.947  4.087  3.784  3.474  3.097  2.446  1.819  1.674  0.163  0.303  0.310  0.687  1.338  1.965  2.110    0.096    0.127    0.170    0.178    0.168    0.138	0.104	 0.096  4.105  3.795  3.413  3.128  0.309  0.383  0.668
1.30 -1.3146  0.3981   4.047  4.167  3.851  3.537  3.159  2.508  1.884  1.741  0.196  0.316  0.314  0.692  1.342  1.967  2.110    0.105    0.136    0.180    0.188    0.176    0.145	0.109	 0.101  4.185  3.863  3.475  3.189  0.322  0.388  0.674
1.30 -1.3146  0.4467   4.156  4.254  3.926  3.608  3.227  2.576  1.953  1.810  0.230  0.328  0.318  0.699  1.350  1.973  2.116    0.115    0.146    0.191    0.199    0.186    0.153	0.116	 0.107  4.273  3.938  3.545  3.258  0.334  0.393  0.681
1.30 -1.3146  0.5012   4.292  4.370  4.029  3.707  3.325  2.677  2.062  1.922  0.263  0.340  0.322  0.704  1.353  1.967  2.107    0.129    0.161    0.208    0.216    0.202    0.166	0.127	 0.118  4.389  4.042  3.643  3.356  0.346  0.399  0.687
1.30 -1.3146  0.5623   4.417  4.472  4.111  3.779  3.390  2.737  2.125  1.988  0.306  0.361  0.332  0.721  1.374  1.986  2.123    0.144    0.175    0.223    0.229    0.213    0.175	0.133	 0.124  4.492  4.125  3.713  3.421  0.367  0.412  0.704
1.30 -1.3146  0.6310   4.547  4.587  4.202  3.860  3.461  2.800  2.189  2.054  0.345  0.385  0.342  0.741  1.402  2.013  2.148    0.161    0.194    0.241    0.245    0.226    0.184	0.140	 0.131  4.609  4.217  3.792  3.493  0.392  0.424  0.723
1.30 -1.3146  0.7079   4.680  4.701  4.307  3.965  3.569  2.914  2.310  2.178  0.373  0.395  0.342  0.738  1.393  1.996  2.129    0.181    0.214    0.263    0.268    0.248    0.203	0.156	 0.146  4.723  4.322  3.898  3.601  0.402  0.424  0.721
1.30 -1.3146  0.7943   4.803  4.801  4.391  4.045  3.645  2.989  2.388  2.256  0.412  0.410  0.347  0.746  1.402  2.003  2.135    0.201    0.232    0.282    0.286    0.264    0.216	0.166	 0.155  4.823  4.406  3.976  3.678  0.417  0.430  0.729
1.30 -1.3146  0.8913   4.933  4.909  4.484  4.131  3.728  3.070  2.470  2.339  0.449  0.425  0.353  0.755  1.414  2.014  2.145    0.225    0.255    0.305    0.308    0.283    0.231	0.178	 0.166  4.932  4.499  4.062  3.761  0.433  0.438  0.739
1.30 -1.3146  1.0000   5.048  5.005  4.566  4.210  3.808  3.154  2.561  2.432  0.482  0.439  0.356  0.758  1.412  2.005  2.134    0.249    0.277    0.327    0.329    0.302    0.247	0.192	 0.180  5.029  4.582  4.140  3.840  0.447  0.442  0.742
1.30 -1.3146  1.1220   5.154  5.094  4.640  4.279  3.874  3.220  2.630  2.503  0.515  0.454  0.361  0.766  1.420  2.010  2.137    0.272    0.298    0.347    0.348    0.319    0.261	0.203	 0.191  5.118  4.657  4.208  3.907  0.462  0.448  0.750
1.30 -1.3146  1.2589   5.223  5.135  4.632  4.244  3.820  3.148  2.551  2.424  0.591  0.503  0.387  0.812  1.483  2.080  2.208    0.288    0.307    0.342    0.334    0.301    0.243	0.188	 0.176  5.163  4.650  4.169  3.854  0.514  0.480  0.796
1.30 -1.3146  1.4125   5.396  5.275  4.730  4.316  3.867  3.170  2.552  2.420  0.666  0.544  0.415  0.863  1.561  2.178  2.311    0.334    0.345    0.370    0.353    0.311    0.244	0.186	 0.173  5.306  4.749  4.236  3.903  0.557  0.513  0.846
1.30 -1.3146  1.5849   5.550  5.434  4.905  4.507  4.077  3.410  2.817  2.691  0.644  0.529  0.399  0.828  1.495  2.088  2.214    0.381    0.396    0.431    0.417    0.374    0.302	0.235	 0.221  5.464  4.924  4.430  4.111  0.540  0.495  0.813
1.30 -1.3146  1.7783   5.668  5.555  5.005  4.600  4.168  3.503  2.915  2.791  0.663  0.550  0.405  0.837  1.502  2.090  2.214    0.421    0.440    0.469    0.451    0.403    0.327	0.255	 0.240  5.586  5.025  4.522  4.203  0.562  0.503  0.822
1.30 -1.3146  1.9953   5.798  5.682  5.106  4.691  4.252  3.585  2.997  2.875  0.692  0.576  0.415  0.854  1.521  2.109  2.231    0.471    0.491    0.511    0.486    0.433    0.350	0.273	 0.257  5.715  5.126  4.611  4.288  0.589  0.515  0.839
1.30 -1.3146  2.2387   5.911  5.798  5.210  4.792  4.353  3.692  3.111  2.990  0.701  0.588  0.418  0.857  1.518  2.099  2.220    0.519    0.542    0.559    0.530    0.471    0.383	0.301	 0.284  5.832  5.231  4.712  4.389  0.601  0.519  0.842
1.30 -1.3146  2.5119   6.026  5.920  5.330  4.912  4.475  3.822  3.246  3.127  0.697  0.590  0.418  0.855  1.508  2.083  2.203    0.574    0.602    0.619    0.588    0.524    0.429	0.339	 0.320  5.954  5.351  4.832  4.511  0.602  0.519  0.840
1.30 -1.3146  2.8184   6.113  6.010  5.423  5.006  4.570  3.920  3.344  3.225  0.691  0.588  0.416  0.853  1.503  2.079  2.198    0.617    0.650    0.670    0.637    0.567    0.466	0.368	 0.348  6.044  5.444  4.927  4.606  0.600  0.518  0.839
1.30 -1.3146  3.1623   6.237  6.138  5.543  5.124  4.688  4.046  3.477  3.360  0.695  0.595  0.419  0.855  1.497  2.066  2.183    0.688    0.726    0.744    0.706    0.629    0.521	0.413	 0.391  6.171  5.565  5.044  4.724  0.607  0.521  0.841
1.30 -1.3146  3.5481   6.361  6.265  5.660  5.238  4.800  4.162  3.595  3.479  0.700  0.604  0.423  0.861  1.499  2.065  2.181    0.766    0.811    0.824    0.778    0.693    0.576	0.458	 0.434  6.299  5.683  5.157  4.836  0.616  0.526  0.847
1.30 -1.3146  3.9811   6.470  6.383  5.767  5.339  4.899  4.265  3.701  3.587  0.704  0.616  0.427  0.867  1.502  2.065  2.180    0.842    0.899    0.903    0.850    0.755    0.629	0.502	 0.477  6.418  5.790  5.258  4.936  0.628  0.532  0.853
1.30 -1.3146  4.4668   6.577  6.492  5.865  5.433  4.991  4.357  3.796  3.682  0.712  0.627  0.432  0.874  1.508  2.069  2.183    0.924    0.989    0.983    0.921    0.816    0.681	0.545	 0.517  6.529  5.888  5.351  5.028  0.640  0.537  0.861
1.30 -1.3146  5.0119   6.678  6.611  5.977  5.543  5.100  4.471  3.913  3.800  0.701  0.635  0.434  0.876  1.506  2.064  2.177    1.008    1.097    1.083    1.013    0.898    0.752	0.603	 0.574  6.648  6.000  5.460  5.138  0.648  0.540  0.863
1.30 -1.3146  5.6234   6.789  6.722  6.075  5.636  5.193  4.564  4.009  3.898  0.714  0.647  0.438  0.882  1.511  2.066  2.177    1.110    1.208    1.179    1.098    0.972    0.815	0.655	 0.624  6.760  6.099  5.554  5.231  0.661  0.545  0.868
1.30 -1.3146  6.3096   6.905  6.836  6.179  5.737  5.293  4.666  4.114  4.005  0.726  0.657  0.442  0.886  1.512  2.064  2.174    1.228    1.334    1.290    1.198    1.060    0.890	0.718	 0.685  6.875  6.203  5.654  5.331  0.672  0.549  0.872
1.30 -1.3146  7.0795   7.030  6.959  6.293  5.849  5.405  4.782  4.235  4.127  0.737  0.666  0.445  0.888  1.511  2.058  2.166    1.371    1.487    1.427    1.321    1.169    0.985	0.798	 0.763  6.999  6.318  5.765  5.443  0.681  0.552  0.875
1.30 -1.3146  7.9433   7.139  7.064  6.389  5.941  5.496  4.874  4.330  4.224  0.750  0.675  0.448  0.893  1.514  2.058  2.165    1.507    1.629    1.549    1.430    1.265    1.067	0.867	 0.829  7.105  6.413  5.857  5.534  0.692  0.556  0.879
1.30 -1.3146  8.9125   7.250  7.173  6.489  6.038  5.593  4.973  4.432  4.327  0.761  0.684  0.451  0.896  1.516  2.057  2.162    1.662    1.792    1.691    1.556    1.376    1.162	0.948	 0.908  7.214  6.514  5.954  5.631  0.701  0.560  0.882
1.30 -1.3146 10.0000   7.367  7.289  6.600  6.147  5.703  5.087  4.551  4.447  0.767  0.690  0.452  0.897  1.513  2.049  2.152    1.843    1.986    1.864    1.714    1.515    1.285	1.052	 1.009  7.332  6.625  6.063  5.742  0.707  0.562  0.883
1.30 -1.3146 11.2202   7.469  7.389  6.692  6.237  5.791  5.177  4.644  4.542  0.778  0.697  0.455  0.901  1.515  2.048  2.150    2.016    2.167    2.020    1.853    1.637    1.391	1.141	 1.096  7.432  6.717  6.152  5.831  0.715  0.565  0.887
1.30 -1.3146 12.5893   7.587  7.503  6.799  6.340  5.894  5.280  4.748  4.647  0.789  0.705  0.458  0.905  1.519  2.050  2.151    2.236    2.396    2.218    2.029    1.790    1.521	1.250	 1.202  7.547  6.824  6.256  5.933  0.723  0.568  0.891
1.30 -1.3146 14.1254   7.648  7.567  6.860  6.402  5.955  5.345  4.817  4.717  0.788  0.707  0.458  0.905  1.515  2.043  2.143    2.340    2.513    2.323    2.123    1.875    1.598	1.318	 1.269  7.611  6.886  6.317  5.995  0.725  0.569  0.890
1.30 -1.3146 15.8489   7.788  7.706  7.006  6.550  6.108  5.507  4.987  4.890  0.783  0.700  0.455  0.898  1.498  2.019  2.116    2.628    2.821    2.622    2.404    2.129    1.832	1.522	 1.468  7.750  7.032  6.467  6.148  0.718  0.565  0.884
1.30 -1.3146 17.7828   7.854  7.771  7.088  6.638  6.199  5.605  5.086  4.988  0.766  0.682  0.450  0.889  1.483  2.002  2.100    2.760    2.959    2.796    2.575    2.289    1.981	1.648	 1.588  7.813  7.114  6.556  6.240  0.699  0.558  0.875
1.30 -0.7052  0.0631   2.566  2.979  2.912  2.778  2.604  2.252  1.848  1.764 -0.347  0.066  0.135  0.309  0.661  1.065  1.149    0.030    0.051    0.085    0.105    0.119    0.128	0.119	 0.116  2.989  2.914  2.748  2.618  0.075  0.166  0.296
1.30 -0.7052  0.0708   2.665  3.057  2.984  2.848  2.674  2.326  1.929  1.848 -0.318  0.073  0.136  0.310  0.658  1.054  1.136    0.033    0.054    0.090    0.111    0.126    0.137	0.127	 0.124  3.067  2.985  2.818  2.689  0.082  0.168  0.297
1.30 -0.7052  0.0794   2.770  3.142  3.066  2.933  2.763  2.425  2.043  1.965 -0.296  0.076  0.133  0.302  0.640  1.022  1.101    0.036    0.058    0.097    0.119    0.136    0.149	0.140	 0.138  3.152  3.068  2.903  2.778  0.084  0.165  0.290
1.30 -0.7052  0.0891   2.868  3.218  3.135  3.000  2.831  2.495  2.119  2.042 -0.266  0.084  0.134  0.304  0.640  1.015  1.092    0.039    0.062    0.102    0.126    0.144    0.158	0.150	 0.147  3.228  3.137  2.970  2.845  0.090  0.167  0.292
1.30 -0.7052  0.1000   2.959  3.293  3.203  3.068  2.897  2.561  2.191  2.115 -0.244  0.090  0.136  0.307  0.642  1.012  1.088    0.042    0.066    0.108    0.133    0.152    0.167	0.159	 0.156  3.302  3.206  3.037  2.912  0.096  0.169  0.295
1.30 -0.7052  0.1122   3.050  3.365  3.245  3.076  2.847  2.404  1.923  1.812 -0.195  0.120  0.169  0.398  0.841  1.322  1.434    0.046    0.070    0.112    0.134    0.144    0.143	0.123	 0.117  3.375  3.249  3.040  2.867  0.126  0.210  0.383
1.30 -0.7052  0.1259   3.139  3.408  3.185  2.889  2.407  1.601  0.853  0.660 -0.046  0.223  0.297  0.778  1.585  2.332  2.525    0.049    0.073    0.105    0.112    0.095    0.068	0.046	 0.040  3.425  3.194  2.832  2.442  0.230  0.362  0.752
1.30 -0.7052  0.1413   3.237  3.495  3.276  2.987  2.508  1.700  0.953  0.756 -0.039  0.218  0.289  0.768  1.576  2.323  2.520    0.053    0.078    0.114    0.121    0.104    0.074	0.050	 0.044  3.510  3.285  2.932  2.543  0.225  0.353  0.742
1.30 -0.7052  0.1585   3.323  3.567  3.354  3.078  2.615  1.824  1.086  0.890 -0.031  0.213  0.277  0.739  1.531  2.268  2.464    0.057    0.083    0.121    0.131    0.114    0.082	0.056	 0.049  3.582  3.363  3.025  2.648  0.219  0.338  0.715
1.30 -0.7052  0.1778   3.414  3.643  3.440  3.178  2.736  1.965  1.240  1.044 -0.026  0.203  0.262  0.704  1.475  2.200  2.396    0.062    0.089    0.130    0.143    0.127    0.093	0.064	 0.056  3.656  3.448  3.128  2.768  0.208  0.321  0.680
1.30 -0.7052  0.1995   3.519  3.731  3.528  3.278  2.860  2.113  1.406  1.213 -0.009  0.203  0.250  0.668  1.415  2.121  2.315    0.068    0.095    0.140    0.155    0.141    0.106	0.074	 0.065  3.744  3.536  3.229  2.891  0.208  0.308  0.646
1.30 -0.7052  0.2239   3.627  3.819  3.613  3.370  2.970  2.242  1.552  1.361  0.013  0.206  0.243  0.644  1.372  2.061  2.252    0.074    0.103    0.151    0.168    0.155    0.118	0.084	 0.074  3.832  3.622  3.322  3.000  0.210  0.300  0.622
1.30 -0.7052  0.2512   3.753  3.925  3.720  3.488  3.115  2.427  1.769  1.586  0.033  0.205  0.232  0.605  1.293  1.951  2.135    0.083    0.113    0.165    0.186    0.176    0.139	0.102	 0.091  3.937  3.729  3.441  3.144  0.208  0.288  0.585
1.30 -0.7052  0.2818   3.868  4.016  3.795  3.555  3.178  2.490  1.836  1.656  0.073  0.221  0.240  0.617  1.305  1.959  2.139    0.092    0.122    0.176    0.196    0.185    0.147	0.108	 0.096  4.029  3.805  3.506  3.207  0.224  0.298  0.598
1.30 -0.7052  0.3162   4.001  4.122  3.883  3.634  3.250  2.558  1.905  1.728  0.118  0.239  0.249  0.633  1.326  1.978  2.156    0.103    0.133    0.189    0.210    0.196    0.155	0.114	 0.102  4.136  3.894  3.584  3.280  0.242  0.310  0.614
1.30 -0.7052  0.3548   4.144  4.235  3.983  3.727  3.336  2.637  1.983  1.805  0.161  0.252  0.257  0.647  1.346  2.001  2.178    0.117    0.147    0.206    0.227    0.211    0.166	0.122	 0.109  4.249  3.994  3.675  3.367  0.256  0.319  0.627
1.30 -0.7052  0.3981   4.283  4.340  4.077  3.818  3.433  2.746  2.102  1.929  0.206  0.264  0.259  0.643  1.331  1.974  2.147    0.132    0.161    0.223    0.245    0.229    0.182	0.135	 0.121  4.355  4.087  3.766  3.463  0.267  0.322  0.624
1.30 -0.7052  0.4467   4.423  4.442  4.160  3.892  3.500  2.805  2.160  1.988  0.263  0.282  0.267  0.660  1.354  1.999  2.172    0.149    0.175    0.239    0.261    0.242    0.191	0.141	 0.127  4.457  4.171  3.839  3.531  0.286  0.332  0.641
1.30 -0.7052  0.5012   4.567  4.550  4.249  3.973  3.572  2.869  2.221  2.048  0.317  0.301  0.276  0.677  1.380  2.028  2.201    0.169    0.192    0.258    0.279    0.257    0.201	0.149	 0.134  4.566  4.261  3.918  3.604  0.305  0.344  0.658
1.30 -0.7052  0.5623   4.700  4.655  4.335  4.050  3.641  2.930  2.280  2.106  0.365  0.319  0.285  0.694  1.406  2.056  2.230    0.189    0.210    0.277    0.297    0.272    0.211	0.156	 0.140  4.671  4.348  3.993  3.673  0.323  0.355  0.675
1.30 -0.7052  0.6310   4.833  4.762  4.419  4.121  3.704  2.986  2.336  2.162  0.414  0.343  0.298  0.715  1.433  2.084  2.257    0.213    0.230    0.298    0.316    0.286    0.221	0.163	 0.146  4.780  4.433  4.062  3.736  0.347  0.370  0.696
1.30 -0.7052  0.7079   4.957  4.871  4.508  4.200  3.777  3.056  2.407  2.233  0.449  0.363  0.307  0.731  1.452  2.101  2.275    0.236    0.253    0.321    0.337    0.304    0.234	0.172	 0.155  4.889  4.522  4.140  3.810  0.367  0.382  0.712
1.30 -0.7052  0.7943   5.079  4.980  4.595  4.276  3.846  3.121  2.473  2.300  0.484  0.386  0.319  0.749  1.473  2.122  2.295    0.263    0.278    0.345    0.359    0.321    0.247	0.182	 0.164  5.000  4.610  4.213  3.880  0.390  0.397  0.731
1.30 -0.7052  0.8913   5.208  5.097  4.683  4.350  3.911  3.181  2.533  2.361  0.525  0.413  0.333  0.772  1.502  2.150  2.323    0.294    0.307    0.371    0.381    0.339    0.259	0.191	 0.172  5.117  4.700  4.285  3.945  0.418  0.415  0.755
1.30 -0.7052  1.0000   5.338  5.218  4.779  4.434  3.989  3.257  2.611  2.439  0.559  0.439  0.345  0.790  1.522  2.168  2.340    0.328    0.341    0.403    0.409    0.361    0.275	0.204	 0.183  5.240  4.796  4.367  4.024  0.444  0.429  0.772
1.30 -0.7052  1.1220   5.457  5.336  4.869  4.513  4.064  3.332  2.689  2.519  0.587  0.467  0.356  0.806  1.538  2.181  2.350    0.364    0.377    0.434    0.436    0.384    0.293	0.217	 0.196  5.360  4.887  4.444  4.099  0.472  0.443  0.789
1.30 -0.7052  1.2589   5.565  5.431  4.915  4.535  4.075  3.342  2.704  2.538  0.651  0.516  0.379  0.840  1.573  2.211  2.377    0.399    0.408    0.450    0.442    0.385    0.293	0.219	 0.198  5.458  4.934  4.462  4.110  0.524  0.472  0.824
1.30 -0.7052  1.4125   5.632  5.473  4.896  4.489  4.019  3.290  2.661  2.502  0.736  0.577  0.407  0.878  1.606  2.236  2.394    0.421    0.421    0.439    0.420    0.363    0.277	0.208	 0.190  5.506  4.917  4.411  4.055  0.589  0.506  0.862
1.30 -0.7052  1.5849   5.910  5.744  5.153  4.725  4.222  3.458  2.794  2.622  0.757  0.591  0.428  0.931  1.696  2.360  2.531    0.536    0.532    0.547    0.515    0.431    0.319	0.232	 0.209  5.778  5.174  4.645  4.260  0.603  0.529  0.914
1.30 -0.7052  1.7783   6.060  5.903  5.301  4.871  4.378  3.634  2.985  2.819  0.760  0.603  0.429  0.923  1.667  2.315  2.482    0.610    0.611    0.622    0.584    0.494    0.372	0.275	 0.248  5.938  5.322  4.791  4.416  0.616  0.531  0.907
1.30 -0.7052  1.9953   6.206  6.043  5.412  4.971  4.478  3.741  3.101  2.939  0.794  0.631  0.441  0.934  1.670  2.311  2.473    0.693    0.690    0.684    0.635    0.537    0.408	0.303	 0.275  6.080  5.434  4.888  4.516  0.646  0.546  0.919
1.30 -0.7052  2.2387   6.332  6.168  5.505  5.050  4.553  3.815  3.176  3.017  0.827  0.663  0.454  0.952  1.690  2.328  2.488    0.773    0.769    0.740    0.679    0.572    0.433	0.323	 0.294  6.208  5.528  4.966  4.591  0.680  0.562  0.937
1.30 -0.7052  2.5119   6.463  6.292  5.609  5.147  4.647  3.906  3.269  3.110  0.854  0.683  0.462  0.962  1.703  2.340  2.499    0.866    0.856    0.809    0.737    0.619    0.468	0.349	 0.318  6.334  5.632  5.061  4.685  0.701  0.571  0.947
1.30 -0.7052  2.8184   6.586  6.408  5.711  5.245  4.746  4.010  3.379  3.222  0.876  0.697  0.466  0.965  1.701  2.332  2.488    0.964    0.947    0.883    0.801    0.674    0.512	0.384	 0.351  6.451  5.734  5.158  4.785  0.717  0.576  0.950
1.30 -0.7052  3.1623   6.695  6.515  5.810  5.341  4.843  4.109  3.480  3.325  0.886  0.705  0.468  0.967  1.701  2.329  2.485    1.059    1.038    0.960    0.870    0.732    0.557	0.419	 0.383  6.559  5.833  5.255  4.882  0.725  0.579  0.951
1.30 -0.7052  3.5481   6.802  6.616  5.905  5.434  4.936  4.205  3.580  3.426  0.897  0.712  0.471  0.968  1.700  2.325  2.479    1.160    1.132    1.042    0.941    0.793    0.605	0.456	 0.417  6.661  5.929  5.347  4.975  0.733  0.582  0.953
1.30 -0.7052  3.9811   6.915  6.724  6.000  5.524  5.025  4.293  3.668  3.515  0.915  0.723  0.476  0.975  1.707  2.332  2.485    1.280    1.242    1.130    1.017    0.855    0.651	0.491	 0.450  6.770  6.025  5.436  5.064  0.745  0.588  0.960
1.30 -0.7052  4.4668   7.048  6.855  6.124  5.644  5.145  4.416  3.793  3.642  0.924  0.731  0.480  0.979  1.708  2.331  2.482    1.436    1.391    1.257    1.127    0.948    0.724	0.547	 0.502  6.902  6.148  5.556  5.185  0.754  0.592  0.964
1.30 -0.7052  5.0119   7.166  6.964  6.220  5.734  5.232  4.500  3.876  3.726  0.946  0.744  0.486  0.988  1.720  2.343  2.494    1.593    1.531    1.367    1.218    1.022    0.779	0.588	 0.540  7.012  6.244  5.645  5.271  0.768  0.599  0.973
1.30 -0.7052  5.6234   7.305  7.104  6.356  5.870  5.370  4.645  4.027  3.879  0.949  0.748  0.486  0.986  1.711  2.329  2.477    1.801    1.732    1.541    1.373    1.154    0.885	0.672	 0.619  7.153  6.381  5.781  5.411  0.772  0.600  0.970
1.30 -0.7052  6.3096   7.424  7.213  6.452  5.959  5.456  4.729  4.110  3.963  0.972  0.761  0.493  0.996  1.723  2.342  2.489    1.998    1.905    1.674    1.483    1.242    0.951	0.721	 0.664  7.264  6.477  5.869  5.497  0.787  0.607  0.980
1.30 -0.7052  7.0795   7.539  7.321  6.548  6.050  5.545  4.816  4.197  4.051  0.991  0.773  0.498  1.003  1.732  2.351  2.497    2.210    2.093    1.820    1.604    1.341    1.025	0.778	 0.717  7.373  6.574  5.960  5.586  0.799  0.613  0.988
1.30 -0.7052  7.9433   7.665  7.439  6.655  6.152  5.644  4.915  4.295  4.150  1.010  0.784  0.503  1.011  1.741  2.360  2.505    2.469    2.321    1.998    1.753    1.462    1.117	0.847	 0.781  7.492  6.681  6.061  5.685  0.812  0.619  0.995
1.30 -0.7052  8.9125   7.782  7.546  6.751  6.242  5.732  5.001  4.382  4.238  1.031  0.795  0.508  1.019  1.749  2.368  2.513    2.735    2.548    2.170    1.895    1.577    1.203	0.913	 0.843  7.601  6.776  6.151  5.773  0.824  0.625  1.003
1.30 -0.7052 10.0000   7.895  7.650  6.844  6.331  5.818  5.088  4.470  4.326  1.051  0.806  0.513  1.026  1.756  2.375  2.518    3.020    2.790    2.354    2.046    1.699    1.297	0.984	 0.910  7.706  6.870  6.240  5.861  0.836  0.631  1.009
1.30 -0.7052 11.2202   8.006  7.750  6.934  6.416  5.901  5.170  4.552  4.411  1.072  0.816  0.518  1.033  1.763  2.381  2.523    3.329    3.045    2.543    2.202    1.825    1.392	1.057	 0.979  7.807  6.960  6.324  5.944  0.847  0.636  1.016
1.30 -0.7052 12.5893   8.120  7.849  7.020  6.497  5.978  5.245  4.625  4.485  1.099  0.829  0.524  1.043  1.776  2.395  2.536    3.681    3.322    2.743    2.361    1.950    1.485	1.126	 1.043  7.909  7.047  6.404  6.021  0.862  0.643  1.026
1.30 -0.7052 14.1254   8.226  7.943  7.105  6.577  6.057  5.324  4.705  4.566  1.121  0.839  0.528  1.048  1.781  2.400  2.539    4.041    3.607    2.952    2.531    2.088    1.589	1.206	 1.119  8.004  7.132  6.484  6.100  0.872  0.647  1.031
1.30 -0.7052 15.8489   8.329  8.039  7.195  6.665  6.146  5.417  4.802  4.666  1.134  0.844  0.530  1.049  1.778  2.393  2.529    4.419    3.918    3.190    2.732    2.255    1.723	1.312	 1.221  8.100  7.222  6.573  6.190  0.878  0.650  1.032
1.30 -0.7052 17.7828   8.424  8.132  7.288  6.758  6.240  5.517  4.907  4.773  1.137  0.845  0.530  1.047  1.771  2.381  2.514    4.767    4.218    3.432    2.937    2.429    1.866	1.427	 1.331  8.194  7.315  6.665  6.285  0.879  0.650  1.030
1.30 -0.3960  0.0631   2.604  3.000  2.938  2.806  2.629  2.266  1.842  1.742 -0.334  0.062  0.132  0.309  0.672  1.096  1.196    0.031    0.052    0.087    0.108    0.122    0.130	0.118	 0.114  3.009  2.939  2.777  2.644  0.070  0.163  0.296
1.30 -0.3960  0.0708   2.700  3.076  3.006  2.873  2.697  2.342  1.931  1.834 -0.306  0.070  0.133  0.309  0.664  1.076  1.172    0.034    0.055    0.092    0.114    0.129    0.139	0.127	 0.123  3.085  3.008  2.843  2.712  0.077  0.165  0.296
1.30 -0.3960  0.0794   2.803  3.164  3.090  2.959  2.789  2.451  2.060  1.969 -0.287  0.074  0.130  0.301  0.639  1.030  1.121    0.037    0.060    0.099    0.122    0.139    0.153	0.143	 0.138  3.173  3.092  2.930  2.803  0.081  0.162  0.289
1.30 -0.3960  0.0891   2.893  3.239  3.156  3.023  2.851  2.515  2.131  2.042 -0.263  0.083  0.133  0.306  0.641  1.025  1.114    0.040    0.064    0.105    0.129    0.147    0.161	0.152	 0.147  3.247  3.159  2.994  2.865  0.088  0.165  0.294
1.30 -0.3960  0.1000   2.985  3.315  3.224  3.089  2.912  2.576  2.196  2.107 -0.239  0.091  0.135  0.312  0.648  1.028  1.117    0.043    0.068    0.111    0.136    0.154    0.169	0.160	 0.155  3.324  3.227  3.058  2.927  0.096  0.169  0.300
1.30 -0.3960  0.1122   3.079  3.389  3.295  3.161  2.983  2.649  2.271  2.183 -0.216  0.095  0.134  0.312  0.646  1.024  1.112    0.047    0.072    0.117    0.145    0.163    0.180	0.170	 0.166  3.398  3.299  3.131  2.999  0.099  0.168  0.300
1.30 -0.3960  0.1259   3.192  3.465  3.310  3.091  2.632  1.733  0.982  0.738 -0.118  0.154  0.219  0.678  1.577  2.328  2.572    0.052    0.077    0.118    0.135    0.118    0.077	0.052	 0.044  3.476  3.317  3.048  2.661  0.160  0.269  0.656
1.30 -0.3960  0.1413   3.295  3.547  3.389  3.177  2.742  1.861  1.125  0.881 -0.094  0.157  0.213  0.648  1.529  2.265  2.508    0.057    0.083    0.127    0.145    0.129    0.086	0.059	 0.049  3.558  3.396  3.135  2.769  0.162  0.261  0.627
1.30 -0.3960  0.1585   3.404  3.634  3.473  3.265  2.859  2.009  1.294  1.055 -0.069  0.162  0.208  0.614  1.463  2.178  2.418    0.062    0.089    0.136    0.156    0.143    0.098	0.068	 0.058  3.645  3.479  3.223  2.885  0.166  0.256  0.594
1.30 -0.3960  0.1778   3.517  3.724  3.554  3.347  2.957  2.126  1.427  1.190 -0.037  0.171  0.207  0.597  1.428  2.127  2.364    0.068    0.096    0.145    0.168    0.156    0.108	0.076	 0.065  3.736  3.561  3.305  2.983  0.175  0.256  0.578
1.30 -0.3960  0.1995   3.643  3.829  3.651  3.446  3.077  2.282  1.605  1.376 -0.009  0.178  0.206  0.574  1.370  2.046  2.275    0.076    0.105    0.158    0.182    0.173    0.124	0.089	 0.076  3.840  3.659  3.404  3.102  0.182  0.255  0.556
1.30 -0.3960  0.2239   3.764  3.922  3.735  3.527  3.165  2.383  1.716  1.490  0.028  0.186  0.208  0.570  1.353  2.020  2.246    0.085    0.114    0.170    0.195    0.186    0.135	0.098	 0.084  3.934  3.743  3.485  3.190  0.191  0.259  0.553
1.30 -0.3960  0.2512   3.901  4.025  3.832  3.623  3.268  2.499  1.842  1.619  0.069  0.193  0.209  0.564  1.333  1.990  2.212    0.096    0.124    0.184    0.212    0.204    0.150	0.110	 0.094  4.037  3.840  3.580  3.293  0.197  0.260  0.547
1.30 -0.3960  0.2818   4.040  4.132  3.932  3.725  3.383  2.646  2.007  1.794  0.108  0.200  0.208  0.550  1.287  1.925  2.139    0.108    0.136    0.201    0.231    0.225    0.170	0.127	 0.110  4.144  3.941  3.681  3.407  0.204  0.259  0.533
1.30 -0.3960  0.3162   4.181  4.233  4.017  3.801  3.450  2.707  2.066  1.854  0.164  0.217  0.215  0.566  1.310  1.951  2.162    0.122    0.149    0.216    0.247    0.238    0.179	0.133	 0.116  4.246  4.025  3.756  3.475  0.221  0.269  0.550
1.30 -0.3960  0.3548   4.322  4.334  4.103  3.881  3.521  2.772  2.128  1.917  0.219  0.231  0.221  0.582  1.331  1.975  2.186    0.138    0.162    0.232    0.264    0.252    0.189	0.140	 0.122  4.346  4.112  3.836  3.547  0.234  0.276  0.565
1.30 -0.3960  0.3981   4.465  4.439  4.191  3.962  3.592  2.838  2.192  1.982  0.274  0.248  0.228  0.598  1.352  1.999  2.208    0.157    0.177    0.250    0.283    0.268    0.200	0.148	 0.129  4.452  4.200  3.915  3.619  0.252  0.285  0.582
1.30 -0.3960  0.4467   4.599  4.542  4.274  4.037  3.662  2.914  2.272  2.066  0.325  0.268  0.237  0.612  1.360  2.002  2.208    0.176    0.194    0.268    0.301    0.284    0.213	0.158	 0.138  4.555  4.284  3.988  3.689  0.271  0.296  0.595
1.30 -0.3960  0.5012   4.734  4.654  4.362  4.112  3.727  2.975  2.333  2.128  0.372  0.292  0.250  0.635  1.387  2.029  2.234    0.199    0.214    0.289    0.321    0.299    0.224	0.166	 0.145  4.668  4.373  4.061  3.755  0.295  0.312  0.619
1.30 -0.3960  0.5623   4.862  4.766  4.453  4.192  3.797  3.039  2.396  2.192  0.408  0.313  0.261  0.657  1.414  2.057  2.262    0.222    0.236    0.313    0.343    0.317    0.236	0.175	 0.153  4.781  4.466  4.139  3.825  0.316  0.327  0.640
1.30 -0.3960  0.6310   4.993  4.884  4.543  4.266  3.859  3.096  2.452  2.248  0.450  0.341  0.277  0.684  1.447  2.090  2.295    0.249    0.261    0.338    0.365    0.334    0.247	0.183	 0.160  4.900  4.557  4.210  3.889  0.343  0.346  0.668
1.30 -0.3960  0.7079   5.120  4.997  4.623  4.327  3.904  3.125  2.475  2.270  0.497  0.374  0.296  0.719  1.498  2.148  2.353    0.278    0.288    0.361    0.383    0.345    0.252	0.186	 0.162  5.015  4.638  4.268  3.935  0.377  0.370  0.703
1.30 -0.3960  0.7943   5.253  5.129  4.724  4.415  3.984  3.198  2.549  2.345  0.529  0.405  0.309  0.739  1.525  2.174  2.379    0.312    0.322    0.393    0.413    0.370    0.268	0.198	 0.173  5.148  4.740  4.353  4.016  0.408  0.387  0.724
1.30 -0.3960  0.8913   5.391  5.265  4.825  4.499  4.057  3.269  2.620  2.416  0.566  0.440  0.326  0.768  1.557  2.205  2.409    0.352    0.363    0.429    0.443    0.393    0.284	0.210	 0.183  5.286  4.842  4.435  4.089  0.444  0.408  0.753
1.30 -0.3960  1.0000   5.516  5.388  4.916  4.574  4.124  3.335  2.688  2.485  0.600  0.472  0.342  0.792  1.581  2.228  2.431    0.392    0.404    0.463    0.471    0.415    0.300	0.222	 0.194  5.411  4.934  4.506  4.157  0.477  0.428  0.777
1.30 -0.3960  1.1220   5.650  5.518  5.007  4.644  4.183  3.395  2.749  2.550  0.643  0.511  0.363  0.824  1.612  2.258  2.457    0.441    0.452    0.500    0.499    0.435    0.315	0.233	 0.204  5.544  5.027  4.573  4.217  0.517  0.453  0.810
1.30 -0.3960  1.2589   5.755  5.585  4.993  4.584  4.094  3.292  2.639  2.445  0.762  0.592  0.409  0.899  1.701  2.355  2.548    0.482    0.477    0.490    0.469    0.398    0.284	0.209	 0.184  5.619  5.014  4.506  4.130  0.604  0.508  0.884
1.30 -0.3960  1.4125   5.994  5.829  5.219  4.791  4.276  3.431  2.751  2.545  0.776  0.611  0.428  0.943  1.788  2.468  2.673    0.592    0.589    0.594    0.559    0.463    0.318	0.228	 0.199  5.864  5.240  4.710  4.312  0.625  0.530  0.927
1.30 -0.3960  1.5849   6.158  5.996  5.364  4.926  4.417  3.588  2.918  2.719  0.794  0.632  0.438  0.946  1.776  2.446  2.645    0.682    0.680    0.673    0.627    0.523    0.364	0.264	 0.231  6.033  5.385  4.843  4.454  0.648  0.542  0.932
1.30 -0.3960  1.7783   6.327  6.149  5.491  5.040  4.526  3.696  3.026  2.829  0.837  0.659  0.450  0.965  1.795  2.465  2.662    0.791    0.778    0.751    0.692    0.574    0.399	0.289	 0.254  6.189  5.513  4.956  4.563  0.676  0.557  0.950
1.30 -0.3960  1.9953   6.486  6.291  5.605  5.143  4.627  3.807  3.143  2.951  0.881  0.686  0.462  0.978  1.798  2.462  2.654    0.910    0.880    0.829    0.756    0.626    0.439	0.320	 0.283  6.333  5.628  5.058  4.665  0.705  0.570  0.963
1.30 -0.3960  2.2387   6.639  6.426  5.713  5.239  4.718  3.901  3.238  3.050  0.927  0.713  0.473  0.994  1.812  2.474  2.662    1.041    0.990    0.909    0.820    0.676    0.476	0.347	 0.308  6.471  5.736  5.152  4.757  0.735  0.584  0.979
1.30 -0.3960  2.5119   6.789  6.552  5.812  5.328  4.803  3.985  3.325  3.139  0.977  0.740  0.484  1.009  1.827  2.487  2.673    1.187    1.105    0.990    0.884    0.726    0.511	0.373	 0.332  6.600  5.835  5.239  4.842  0.765  0.596  0.993
1.30 -0.3960  2.8184   6.929  6.677  5.919  5.426  4.891  4.066  3.400  3.212  1.010  0.759  0.493  1.027  1.853  2.519  2.707    1.341    1.231    1.085    0.961    0.782    0.547	0.397	 0.352  6.727  5.943  5.336  4.931  0.785  0.607  1.012
1.30 -0.3960  3.1623   7.071  6.807  6.035  5.540  5.013  4.205  3.551  3.369  1.036  0.772  0.495  1.022  1.830  2.484  2.666    1.519    1.379    1.200    1.061    0.870    0.618	0.454	 0.405  6.858  6.059  5.449  5.053  0.799  0.610  1.007
1.30 -0.3960  3.5481   7.176  6.903  6.121  5.621  5.093  4.288  3.636  3.456  1.056  0.782  0.499  1.028  1.833  2.485  2.664    1.664    1.498    1.291    1.136    0.930    0.663	0.488	 0.436  6.956  6.145  5.530  5.133  0.811  0.615  1.012
1.30 -0.3960  3.9811   7.286  7.003  6.212  5.707  5.175  4.370  3.717  3.539  1.074  0.792  0.504  1.037  1.841  2.494  2.672    1.830    1.633    1.396    1.223    0.998    0.711	0.523	 0.468  7.058  6.236  5.616  5.215  0.821  0.620  1.021
1.30 -0.3960  4.4668   7.406  7.113  6.310  5.800  5.264  4.458  3.804  3.627  1.095  0.803  0.510  1.047  1.852  2.506  2.683    2.032    1.797    1.520    1.325    1.076    0.767	0.563	 0.505  7.169  6.335  5.708  5.304  0.834  0.627  1.031
1.30 -0.3960  5.0119   7.545  7.247  6.437  5.924  5.386  4.584  3.931  3.756  1.108  0.810  0.513  1.051  1.853  2.505  2.680    2.296    2.021    1.698    1.476    1.197    0.855	0.629	 0.565  7.304  6.462  5.831  5.426  0.842  0.630  1.035
1.30 -0.3960  5.6234   7.672  7.360  6.536  6.017  5.474  4.669  4.015  3.841  1.136  0.824  0.519  1.063  1.867  2.521  2.695    2.569    2.231    1.850    1.599    1.291    0.921	0.676	 0.608  7.418  6.561  5.924  5.515  0.857  0.638  1.046
1.30 -0.3960  6.3096   7.821  7.498  6.664  6.139  5.593  4.791  4.139  3.966  1.157  0.834  0.525  1.071  1.873  2.525  2.698    2.930    2.519    2.070    1.781    1.434    1.025	0.753	 0.678  7.558  6.689  6.046  5.635  0.868  0.644  1.055
1.30 -0.3960  7.0795   7.958  7.629  6.790  6.264  5.718  4.919  4.268  4.098  1.168  0.839  0.526  1.072  1.871  2.522  2.693    3.309    2.828    2.314    1.988    1.601    1.147	0.845	 0.762  7.689  6.816  6.170  5.760  0.873  0.645  1.056
1.30 -0.3960  7.9433   8.085  7.740  6.890  6.358  5.808  5.008  4.357  4.188  1.194  0.850  0.532  1.082  1.882  2.533  2.703    3.699    3.119    2.526    2.158    1.731    1.239	0.913	 0.824  7.802  6.916  6.264  5.851  0.886  0.652  1.066
1.30 -0.3960  8.9125   8.199  7.839  6.978  6.441  5.887  5.087  4.436  4.267  1.221  0.861  0.537  1.091  1.892  2.542  2.711    4.092    3.400    2.726    2.319    1.854    1.326	0.977	 0.882  7.902  7.004  6.347  5.931  0.898  0.658  1.074
1.30 -0.3960 10.0000   8.315  7.935  7.061  6.518  5.957  5.152  4.498  4.329  1.253  0.874  0.544  1.104  1.909  2.563  2.732    4.531    3.698    2.929    2.476    1.967    1.402	1.030	 0.930  8.001  7.088  6.422  6.001  0.913  0.665  1.087
1.30 -0.3960 11.2202   8.414  8.022  7.139  6.591  6.027  5.218  4.563  4.394  1.275  0.882  0.548  1.112  1.921  2.576  2.746    4.944    3.986    3.133    2.638    2.089    1.483	1.088	 0.982  8.088  7.166  6.496  6.071  0.922  0.670  1.094
1.30 -0.3960 12.5893   8.529  8.123  7.233  6.680  6.112  5.298  4.641  4.470  1.297  0.891  0.552  1.121  1.935  2.592  2.763    5.473    4.359    3.400    2.851    2.249    1.589	1.164	 1.049  8.191  7.260  6.585  6.157  0.932  0.675  1.103
1.30 -0.3960 14.1254   8.662  8.236  7.332  6.773  6.196  5.372  4.709  4.537  1.330  0.904  0.559  1.136  1.960  2.623  2.796    6.158    4.814    3.711    3.091    2.421    1.694	1.235	 1.111  8.306  7.359  6.676  6.242  0.946  0.683  1.118
1.30 -0.3960 15.8489   8.808  8.367  7.453  6.887  6.306  5.483  4.820  4.649  1.355  0.914  0.566  1.147  1.970  2.632  2.803    7.014    5.409    4.130    3.420    2.666    1.869	1.362	 1.227  8.438  7.480  6.790  6.352  0.958  0.690  1.128
1.30 -0.3960 17.7828   8.897  8.444  7.520  6.950  6.365  5.542  4.879  4.709  1.376  0.923  0.570  1.156  1.979  2.642  2.811    7.574    5.779    4.374    3.607    2.801    1.963	1.430	 1.291  8.517  7.548  6.853  6.411  0.968  0.695  1.137
1.30  0.0000  0.0631   2.732  3.113  3.016  2.858  2.640  2.209  1.742  1.618 -0.283  0.097  0.158  0.376  0.807  1.274  1.397    0.035    0.058    0.094    0.113    0.123    0.124	0.108	 0.102  3.124  3.019  2.823  2.658  0.105  0.196  0.360
1.30  0.0000  0.0708   2.846  3.206  3.097  2.933  2.710  2.273  1.809  1.688 -0.251  0.109  0.164  0.386  0.824  1.288  1.409    0.039    0.063    0.100    0.120    0.130    0.130	0.114	 0.108  3.217  3.100  2.897  2.729  0.117  0.203  0.371
1.30  0.0000  0.0794   2.957  3.301  3.193  3.032  2.812  2.378  1.919  1.799 -0.235  0.108  0.161  0.381  0.815  1.274  1.393    0.043    0.068    0.109    0.131    0.142    0.143	0.125	 0.119  3.312  3.196  2.997  2.830  0.116  0.199  0.366
1.30  0.0000  0.0891   3.054  3.373  3.258  3.096  2.875  2.441  1.988  1.870 -0.204  0.114  0.162  0.383  0.817  1.271  1.388    0.046    0.072    0.115    0.138    0.150    0.150	0.133	 0.126  3.384  3.262  3.061  2.893  0.122  0.201  0.368
1.30  0.0000  0.1000   3.161  3.451  3.330  3.165  2.942  2.504  2.053  1.936 -0.169  0.121  0.164  0.388  0.826  1.277  1.393    0.051    0.077    0.122    0.146    0.159    0.158	0.140	 0.133  3.462  3.333  3.129  2.960  0.129  0.204  0.373
1.30  0.0000  0.1122   3.266  3.529  3.404  3.238  3.014  2.571  2.120  2.003 -0.138  0.126  0.166  0.390  0.833  1.284  1.401    0.056    0.082    0.130    0.156    0.169    0.168	0.148	 0.141  3.541  3.408  3.201  3.032  0.133  0.206  0.375
1.30  0.0000  0.1259   3.372  3.611  3.480  3.299  2.971  2.028  1.319  1.058 -0.108  0.131  0.181  0.509  1.452  2.161  2.422    0.061    0.088    0.139    0.164    0.161    0.101	0.071	 0.059  3.622  3.484  3.261  2.989  0.138  0.223  0.495
1.30  0.0000  0.1413   3.481  3.691  3.559  3.381  3.065  2.149  1.452  1.194 -0.078  0.132  0.178  0.494  1.410  2.107  2.365    0.067    0.095    0.148    0.175    0.175    0.112	0.079	 0.066  3.702  3.563  3.343  3.083  0.139  0.220  0.481
1.30  0.0000  0.1585   3.597  3.781  3.650  3.476  3.175  2.304  1.624  1.372 -0.053  0.132  0.174  0.475  1.346  2.026  2.278    0.074    0.102    0.160    0.190    0.192    0.129	0.092	 0.077  3.792  3.654  3.439  3.193  0.138  0.215  0.462
1.30  0.0000  0.1778   3.725  3.872  3.734  3.561  3.272  2.439  1.776  1.530 -0.009  0.138  0.173  0.462  1.295  1.957  2.203    0.083    0.110    0.172    0.205    0.209    0.145	0.106	 0.089  3.883  3.739  3.524  3.290  0.144  0.214  0.449
1.30  0.0000  0.1995   3.845  3.959  3.813  3.642  3.367  2.583  1.946  1.709  0.032  0.146  0.171  0.446  1.230  1.867  2.104    0.092    0.119    0.184    0.219    0.227    0.165	0.123	 0.104  3.969  3.818  3.605  3.384  0.151  0.213  0.434
1.30  0.0000  0.2239   3.989  4.064  3.905  3.732  3.465  2.726  2.112  1.887  0.084  0.159  0.173  0.440  1.179  1.793  2.017    0.105    0.130    0.199    0.237    0.247    0.187	0.142	 0.122  4.074  3.910  3.695  3.482  0.164  0.216  0.428
1.30  0.0000  0.2512   4.139  4.167  3.992  3.814  3.541  2.790  2.175  1.949  0.147  0.175  0.177  0.451  1.202  1.817  2.042    0.120    0.142    0.215    0.254    0.263    0.197	0.150	 0.128  4.177  3.998  3.776  3.559  0.180  0.222  0.439
1.30  0.0000  0.2818   4.282  4.267  4.078  3.898  3.621  2.858  2.240  2.013  0.204  0.189  0.180  0.457  1.220  1.838  2.065    0.136    0.155    0.231    0.273    0.281    0.208	0.158	 0.135  4.277  4.084  3.859  3.639  0.193  0.225  0.445
1.30  0.0000  0.3162   4.423  4.371  4.163  3.978  3.698  2.938  2.327  2.102  0.260  0.207  0.185  0.466  1.225  1.837  2.061    0.154    0.170    0.248    0.292    0.300    0.223	0.171	 0.146  4.381  4.171  3.938  3.717  0.211  0.232  0.454
1.30  0.0000  0.3548   4.554  4.473  4.243  4.046  3.755  2.988  2.378  2.154  0.312  0.231  0.197  0.488  1.254  1.865  2.088    0.173    0.186    0.266    0.309    0.315    0.233	0.178	 0.153  4.485  4.251  4.004  3.775  0.234  0.247  0.476
1.30  0.0000  0.3981   4.684  4.588  4.333  4.124  3.821  3.048  2.437  2.214  0.351  0.255  0.209  0.512  1.286  1.896  2.119    0.194    0.205    0.288    0.331    0.333    0.244	0.187	 0.160  4.600  4.343  4.080  3.842  0.257  0.264  0.501
1.30  0.0000  0.4467   4.817  4.705  4.422  4.196  3.881  3.100  2.489  2.267  0.395  0.283  0.226  0.541  1.322  1.933  2.154    0.218    0.227    0.310    0.351    0.350    0.255	0.195	 0.168  4.718  4.433  4.148  3.903  0.285  0.285  0.531
1.30  0.0000  0.5012   4.957  4.832  4.515  4.271  3.941  3.148  2.536  2.315  0.442  0.318  0.244  0.573  1.366  1.979  2.200    0.246    0.254    0.336    0.374    0.368    0.265	0.202	 0.174  4.846  4.527  4.220  3.965  0.319  0.308  0.562
1.30  0.0000  0.5623   5.098  4.972  4.618  4.357  4.017  3.210  2.595  2.375  0.480  0.354  0.261  0.601  1.408  2.023  2.243    0.278    0.287    0.367    0.402    0.392    0.279	0.212	 0.183  4.987  4.631  4.302  4.041  0.356  0.329  0.590
1.30  0.0000  0.6310   5.244  5.117  4.728  4.449  4.091  3.278  2.661  2.441  0.516  0.389  0.279  0.636  1.449  2.067  2.287    0.316    0.326    0.404    0.435    0.417    0.295	0.224	 0.193  5.134  4.743  4.391  4.117  0.392  0.351  0.626
1.30  0.0000  0.7079   5.389  5.265  4.835  4.535  4.163  3.342  2.721  2.501  0.554  0.430  0.300  0.672  1.493  2.114  2.334    0.360    0.371    0.443    0.469    0.443    0.311	0.235	 0.203  5.285  4.852  4.474  4.189  0.433  0.378  0.662
1.30  0.0000  0.7943   5.541  5.411  4.938  4.616  4.226  3.398  2.774  2.555  0.603  0.473  0.323  0.712  1.540  2.164  2.383    0.411    0.422    0.484    0.502    0.467    0.325	0.246	 0.212  5.434  4.956  4.550  4.254  0.478  0.406  0.702
1.30  0.0000  0.8913   5.693  5.556  5.044  4.701  4.295  3.453  2.823  2.603  0.649  0.512  0.343  0.748  1.590  2.220  2.440    0.470    0.480    0.530    0.539    0.494    0.340	0.255	 0.220  5.581  5.063  4.632  4.324  0.519  0.431  0.738
1.30  0.0000  1.0000   5.841  5.704  5.152  4.789  4.371  3.522  2.890  2.671  0.689  0.552  0.363  0.781  1.630  2.263  2.481    0.535    0.547    0.582    0.581    0.527    0.360	0.270	 0.233  5.733  5.172  4.717  4.401  0.561  0.455  0.771
1.30  0.0000  1.1220   5.998  5.840  5.248  4.866  4.437  3.582  2.949  2.732  0.750  0.592  0.382  0.812  1.666  2.300  2.516    0.615    0.615    0.632    0.620    0.556    0.378	0.283	 0.245  5.872  5.269  4.791  4.468  0.603  0.478  0.801
1.30  0.0000  1.2589   6.157  5.953  5.301  4.885  4.429  3.561  2.918  2.705  0.855  0.652  0.416  0.872  1.740  2.383  2.596    0.707    0.679    0.660    0.627    0.549    0.369	0.274	 0.237  5.991  5.323  4.805  4.461  0.668  0.518  0.861
1.30  0.0000  1.4125   6.305  6.052  5.340  4.892  4.409  3.534  2.883  2.675  0.965  0.712  0.449  0.931  1.806  2.457  2.665    0.806    0.739    0.680    0.627    0.535    0.357	0.263	 0.229  6.097  5.362  4.806  4.444  0.735  0.556  0.919
1.30  0.0000  1.5849   6.525  6.289  5.571  5.109  4.599  3.673  2.991  2.769  0.954  0.718  0.462  0.972  1.898  2.580  2.802    0.974    0.907    0.829    0.756    0.629    0.401	0.287	 0.247  6.334  5.593  5.023  4.634  0.741  0.571  0.959
1.30  0.0000  1.7783   6.704  6.451  5.712  5.238  4.717  3.803  3.120  2.902  0.992  0.739  0.474  0.996  1.909  2.592  2.810    1.140    1.045    0.937    0.845    0.696    0.449	0.321	 0.277  6.499  5.735  5.151  4.753  0.764  0.584  0.982
1.30  0.0000  1.9953   6.883  6.609  5.851  5.368  4.842  3.952  3.277  3.067  1.032  0.758  0.483  1.010  1.899  2.574  2.785    1.334    1.201    1.058    0.946    0.775    0.511	0.368	 0.320  6.659  5.874  5.279  4.879  0.785  0.595  0.996
1.30  0.0000  2.2387   7.050  6.750  5.967  5.472  4.934  4.051  3.377  3.171  1.084  0.783  0.495  1.032  1.915  2.590  2.796    1.547    1.358    1.169    1.034    0.839    0.556	0.401	 0.350  6.803  5.990  5.381  4.972  0.813  0.609  1.018
1.30  0.0000  2.5119   7.214  6.886  6.080  5.575  5.032  4.151  3.478  3.275  1.134  0.806  0.505  1.048  1.929  2.602  2.805    1.788    1.530    1.290    1.130    0.913    0.606	0.438	 0.383  6.942  6.104  5.483  5.071  0.838  0.620  1.033
1.30  0.0000  2.8184   7.385  7.029  6.200  5.684  5.129  4.236  3.557  3.353  1.185  0.829  0.516  1.071  1.964  2.643  2.847    2.078    1.733    1.432    1.242    0.991    0.651	0.468	 0.409  7.087  6.224  5.591  5.168  0.863  0.633  1.056
1.30  0.0000  3.1623   7.559  7.168  6.315  5.787  5.220  4.317  3.634  3.430  1.244  0.853  0.528  1.095  1.998  2.681  2.885    2.426    1.959    1.582    1.357    1.071    0.698	0.499	 0.436  7.230  6.340  5.693  5.259  0.891  0.647  1.080
1.30  0.0000  3.5481   7.710  7.291  6.421  5.886  5.309  4.397  3.709  3.504  1.289  0.870  0.536  1.112  2.024  2.712  2.917    2.773    2.182    1.735    1.477    1.157    0.747	0.532	 0.464  7.356  6.446  5.790  5.350  0.910  0.656  1.096
1.30  0.0000  3.9811   7.862  7.419  6.534  5.992  5.414  4.508  3.824  3.622  1.328  0.885  0.542  1.120  2.026  2.710  2.912    3.169    2.440    1.914    1.620    1.267    0.822	0.588	 0.515  7.485  6.559  5.896  5.454  0.926  0.663  1.104
1.30  0.0000  4.4668   7.925  7.490  6.610  6.069  5.490  4.586  3.902  3.701  1.316  0.881  0.541  1.119  2.024  2.707  2.908    3.341    2.591    2.040    1.728    1.351    0.878	0.628	 0.550  7.556  6.635  5.972  5.531  0.922  0.662  1.104
1.30  0.0000  5.0119   8.056  7.598  6.704  6.156  5.570  4.656  3.969  3.766  1.352  0.895  0.548  1.133  2.048  2.735  2.938    3.747    2.845    2.211    1.862    1.446    0.932	0.664	 0.581  7.666  6.729  6.059  5.611  0.938  0.670  1.117
1.30  0.0000  5.6234   8.204  7.723  6.813  6.258  5.666  4.745  4.055  3.852  1.391  0.909  0.555  1.147  2.068  2.758  2.961    4.271    3.173    2.433    2.034    1.571    1.006	0.715	 0.625  7.793  6.838  6.160  5.708  0.954  0.678  1.131
1.30  0.0000  6.3096   8.357  7.877  6.970  6.417  5.831  4.926  4.245  4.046  1.387  0.907  0.553  1.139  2.044  2.725  2.924    4.893    3.639    2.797    2.343    1.819    1.182	0.847	 0.744  7.947  6.996  6.320  5.873  0.951  0.676  1.123
1.30  0.0000  7.0795   8.483  7.985  7.068  6.509  5.917  5.005  4.321  4.121  1.416  0.918  0.559  1.150  2.063  2.746  2.947    5.468    4.001    3.045    2.537    1.960    1.265	0.904	 0.793  8.057  7.093  6.411  5.959  0.963  0.683  1.134
1.30  0.0000  7.9433   8.619  8.100  7.171  6.606  6.009  5.090  4.405  4.204  1.448  0.930  0.565  1.162  2.080  2.766  2.967    6.166    4.428    3.332    2.762    2.123    1.362	0.972	 0.852  8.174  7.196  6.507  6.052  0.977  0.689  1.145
1.30  0.0000  8.9125   8.753  8.210  7.266  6.693  6.089  5.160  4.471  4.268  1.487  0.944  0.573  1.177  2.105  2.795  2.997    6.946    4.876    3.621    2.980    2.275    1.446	1.028	 0.900  8.286  7.292  6.594  6.132  0.994  0.698  1.160
1.30  0.0000 10.0000   8.882  8.318  7.362  6.783  6.174  5.241  4.551  4.348  1.520  0.956  0.579  1.188  2.120  2.811  3.014    7.789    5.362    3.938    3.223    2.448    1.552	1.102	 0.964  8.395  7.388  6.683  6.217  1.007  0.705  1.171
1.30  0.0000 11.2202   9.017  8.427  7.456  6.870  6.254  5.311  4.616  4.411  1.561  0.970  0.586  1.202  2.146  2.840  3.045    8.786    5.903    4.280    3.479    2.626    1.647	1.166	 1.018  8.507  7.483  6.770  6.298  1.024  0.713  1.185
1.30  0.0000 12.5893   9.158  8.538  7.553  6.960  6.337  5.392  4.697  4.493  1.604  0.985  0.594  1.216  2.162  2.857  3.061    9.959    6.518    4.661    3.762    2.824    1.768	1.250	 1.093  8.621  7.580  6.859  6.382  1.041  0.721  1.198
1.30  0.0000 14.1254   9.294  8.644  7.643  7.042  6.411  5.454  4.755  4.549  1.651  1.001  0.602  1.232  2.189  2.888  3.095   11.249    7.156    5.044    4.042    3.011    1.865	1.314	 1.146  8.729  7.670  6.940  6.456  1.059  0.730  1.214
1.30  0.0000 15.8489   9.422  8.748  7.735  7.127  6.491  5.526  4.825  4.617  1.687  1.012  0.608  1.244  2.209  2.910  3.118   12.615    7.846    5.471    4.359    3.230    1.986	1.397	 1.217  8.835  7.762  7.025  6.536  1.072  0.737  1.226
1.30  0.0000 17.7828   9.559  8.858  7.833  7.218  6.576  5.603  4.900  4.691  1.727  1.025  0.615  1.257  2.230  2.933  3.142   14.271    8.658    5.968    4.725    3.481    2.126	1.492	 1.299  8.947  7.860  7.115  6.622  1.087  0.745  1.239
1.30  0.2223  0.0631   2.878  3.263  3.180  2.990  2.697  2.132  1.548  1.386 -0.302  0.083  0.190  0.484  1.048  1.632  1.794    0.040    0.066    0.108    0.127    0.129    0.115	0.090	 0.082  3.275  3.181  2.950  2.718  0.094  0.231  0.463
1.30  0.2223  0.0708   2.973  3.333  3.248  3.067  2.789  2.239  1.671  1.512 -0.275  0.085  0.181  0.460  1.009  1.577  1.736    0.043    0.070    0.115    0.136    0.140    0.126	0.100	 0.091  3.345  3.249  3.030  2.809  0.095  0.220  0.440
1.30  0.2223  0.0794   3.075  3.404  3.314  3.138  2.870  2.336  1.785  1.630 -0.239  0.090  0.176  0.444  0.978  1.530  1.684    0.048    0.074    0.122    0.144    0.150    0.137	0.111	 0.101  3.415  3.316  3.101  2.890  0.099  0.215  0.426
1.30  0.2223  0.0891   3.169  3.469  3.373  3.200  2.940  2.420  1.883  1.733 -0.204  0.096  0.173  0.433  0.953  1.490  1.640    0.052    0.079    0.128    0.152    0.159    0.147	0.121	 0.111  3.479  3.375  3.163  2.960  0.105  0.212  0.415
1.30  0.2223  0.1000   3.259  3.534  3.434  3.263  3.013  2.504  1.981  1.834 -0.174  0.101  0.171  0.421  0.930  1.452  1.599    0.056    0.083    0.134    0.160    0.169    0.158	0.131	 0.121  3.545  3.436  3.226  3.032  0.109  0.210  0.404
1.30  0.2223  0.1122   3.366  3.611  3.507  3.341  3.101  2.607  2.100  1.957 -0.141  0.104  0.166  0.406  0.900  1.407  1.550    0.061    0.089    0.143    0.171    0.182    0.173	0.146	 0.135  3.622  3.509  3.305  3.120  0.112  0.204  0.390
1.30  0.2223  0.1259   3.477  3.690  3.578  3.407  3.132  2.280  1.608  1.363 -0.101  0.112  0.171  0.446  1.298  1.970  2.215    0.067    0.095    0.152    0.181    0.187    0.127	0.092	 0.077  3.700  3.581  3.371  3.149  0.119  0.210  0.432
1.30  0.2223  0.1413   3.587  3.769  3.653  3.486  3.222  2.421  1.770  1.534 -0.065  0.116  0.167  0.431  1.232  1.883  2.119    0.074    0.101    0.161    0.193    0.202    0.144	0.106	 0.090  3.779  3.656  3.450  3.238  0.122  0.206  0.418
1.30  0.2223  0.1585   3.713  3.856  3.731  3.564  3.309  2.573  1.953  1.732 -0.017  0.126  0.167  0.421  1.158  1.777  1.999    0.083    0.109    0.172    0.206    0.217    0.165	0.125	 0.107  3.866  3.735  3.528  3.326  0.132  0.207  0.408
1.30  0.2223  0.1778   3.840  3.946  3.807  3.638  3.389  2.692  2.095  1.885  0.033  0.139  0.169  0.418  1.115  1.712  1.923    0.092    0.118    0.184    0.220    0.232    0.183	0.142	 0.123  3.956  3.812  3.602  3.406  0.144  0.210  0.405
1.30  0.2223  0.1995   3.985  4.047  3.894  3.725  3.482  2.828  2.259  2.061  0.091  0.153  0.169  0.412  1.065  1.635  1.833    0.105    0.129    0.198    0.237    0.252    0.206	0.164	 0.144  4.057  3.899  3.688  3.499  0.158  0.210  0.399
1.30  0.2223  0.2239   4.130  4.143  3.972  3.798  3.555  2.917  2.363  2.172  0.158  0.171  0.174  0.417  1.055  1.609  1.800    0.119    0.140    0.212    0.252    0.268    0.223	0.179	 0.159  4.153  3.978  3.761  3.573  0.176  0.217  0.405
1.30  0.2223  0.2512   4.283  4.249  4.056  3.876  3.627  2.975  2.419  2.227  0.227  0.192  0.180  0.430  1.082  1.637  1.830    0.137    0.153    0.228    0.269    0.285    0.233	0.188	 0.166  4.259  4.063  3.837  3.645  0.196  0.226  0.417
1.30  0.2223  0.2818   4.420  4.353  4.142  3.956  3.702  3.036  2.480  2.285  0.279  0.211  0.186  0.439  1.105  1.662  1.857    0.154    0.168    0.245    0.288    0.303    0.246	0.197	 0.174  4.363  4.149  3.916  3.721  0.214  0.233  0.428
1.30  0.2223  0.3162   4.555  4.465  4.228  4.030  3.765  3.090  2.534  2.339  0.327  0.236  0.199  0.464  1.139  1.694  1.890    0.174    0.185    0.264    0.306    0.320    0.257	0.206	 0.182  4.476  4.237  3.987  3.785  0.239  0.250  0.452
1.30  0.2223  0.3548   4.688  4.581  4.316  4.102  3.824  3.132  2.573  2.376  0.372  0.264  0.214  0.492  1.184  1.743  1.940    0.195    0.205    0.284    0.326    0.336    0.265	0.213	 0.187  4.593  4.326  4.056  3.845  0.267  0.270  0.481
1.30  0.2223  0.3981   4.832  4.709  4.416  4.187  3.898  3.185  2.621  2.421  0.416  0.293  0.230  0.519  1.231  1.796  1.996    0.222    0.229    0.310    0.350    0.357    0.277	0.221	 0.194  4.723  4.428  4.138  3.920  0.295  0.290  0.508
1.30  0.2223  0.4467   4.974  4.842  4.515  4.270  3.971  3.232  2.660  2.458  0.459  0.327  0.245  0.544  1.283  1.855  2.057    0.251    0.258    0.338    0.376    0.380    0.288	0.228	 0.200  4.856  4.527  4.218  3.994  0.329  0.310  0.533
1.30  0.2223  0.5012   5.113  4.977  4.612  4.348  4.038  3.274  2.694  2.490  0.501  0.365  0.264  0.574  1.339  1.918  2.122    0.284    0.290    0.368    0.402    0.402    0.298	0.234	 0.205  4.993  4.626  4.293  4.062  0.368  0.333  0.564
1.30  0.2223  0.5623   5.264  5.125  4.718  4.432  4.102  3.331  2.748  2.544  0.547  0.408  0.286  0.615  1.386  1.970  2.174    0.325    0.331    0.403    0.432    0.424    0.312	0.245	 0.214  5.144  4.733  4.372  4.127  0.411  0.360  0.605
1.30  0.2223  0.6310   5.414  5.274  4.825  4.518  4.175  3.394  2.806  2.602  0.589  0.449  0.306  0.649  1.431  2.018  2.223    0.371    0.377    0.442    0.465    0.451    0.328	0.257	 0.224  5.295  4.841  4.455  4.202  0.454  0.386  0.639
1.30  0.2223  0.7079   5.578  5.430  4.939  4.612  4.251  3.460  2.867  2.661  0.638  0.491  0.327  0.688  1.479  2.072  2.278    0.428    0.433    0.488    0.504    0.481    0.347	0.270	 0.235  5.454  4.957  4.545  4.279  0.497  0.412  0.678
1.30  0.2223  0.7943   5.753  5.589  5.052  4.703  4.327  3.519  2.920  2.714  0.701  0.537  0.349  0.725  1.533  2.132  2.338    0.501    0.498    0.538    0.544    0.513    0.364	0.281	 0.246  5.617  5.071  4.632  4.356  0.545  0.439  0.715
1.30  0.2223  0.8913   5.929  5.743  5.163  4.793  4.400  3.573  2.966  2.758  0.766  0.580  0.370  0.763  1.590  2.198  2.405    0.585    0.571    0.593    0.588    0.545    0.381	0.292	 0.254  5.774  5.183  4.719  4.430  0.591  0.464  0.753
1.30  0.2223  1.0000   6.094  5.883  5.263  4.875  4.467  3.629  3.017  2.810  0.830  0.619  0.388  0.796  1.635  2.247  2.453    0.677    0.645    0.646    0.630    0.576    0.398	0.304	 0.265  5.917  5.284  4.798  4.498  0.633  0.486  0.786
1.30  0.2223  1.1220   6.270  6.031  5.374  4.969  4.547  3.696  3.080  2.874  0.896  0.657  0.405  0.827  1.678  2.294  2.500    0.791    0.735    0.711    0.682    0.616    0.421	0.320	 0.279  6.069  5.395  4.889  4.579  0.674  0.506  0.817
1.30  0.2223  1.2589   6.431  6.158  5.461  5.035  4.596  3.736  3.113  2.908  0.970  0.697  0.426  0.865  1.725  2.348  2.553    0.911    0.821    0.765    0.720    0.640    0.434	0.328	 0.286  6.201  5.483  4.952  4.629  0.718  0.530  0.854
1.30  0.2223  1.4125   6.583  6.254  5.494  5.029  4.553  3.675  3.034  2.831  1.089  0.760  0.464  0.941  1.819  2.460  2.663    1.042    0.890    0.783    0.712    0.612    0.407	0.303	 0.265  6.304  5.516  4.942  4.588  0.788  0.575  0.928
1.30  0.2223  1.5849   6.768  6.395  5.581  5.076  4.525  3.481  2.760  2.521  1.187  0.814  0.505  1.057  2.101  2.821  3.060    1.224    1.005    0.842    0.737    0.591    0.338	0.233	 0.198  6.452  5.605  4.984  4.561  0.848  0.621  1.044
1.30  0.2223  1.7783   6.978  6.639  5.851  5.361  4.839  3.926  3.252  3.041  1.127  0.788  0.490  1.012  1.926  2.599  2.810    1.471    1.246    1.069    0.949    0.781    0.504	0.363	 0.316  6.693  5.874  5.271  4.876  0.818  0.604  0.998
1.30  0.2223  1.9953   7.153  6.795  5.988  5.487  4.955  4.048  3.376  3.168  1.166  0.807  0.500  1.032  1.939  2.612  2.819    1.716    1.428    1.203    1.058    0.863    0.560	0.404	 0.352  6.851  6.011  5.395  4.993  0.840  0.616  1.018
1.30  0.2223  2.2387   7.325  6.937  6.106  5.594  5.050  4.140  3.465  3.260  1.219  0.831  0.512  1.056  1.966  2.641  2.846    1.997    1.618    1.333    1.160    0.936    0.605	0.436	 0.381  6.996  6.130  5.501  5.088  0.866  0.629  1.042
1.30  0.2223  2.5119   7.505  7.089  6.238  5.715  5.157  4.231  3.549  3.342  1.267  0.852  0.523  1.081  2.007  2.689  2.896    2.342    1.849    1.495    1.288    1.026    0.654	0.468	 0.408  7.151  6.262  5.621  5.196  0.889  0.641  1.066
1.30  0.2223  2.8184   7.684  7.235  6.360  5.825  5.256  4.319  3.633  3.426  1.325  0.875  0.535  1.104  2.041  2.727  2.934    2.747    2.101    1.663    1.418    1.118    0.705	0.503	 0.438  7.300  6.384  5.730  5.296  0.915  0.655  1.089
1.30  0.2223  3.1623   7.863  7.367  6.464  5.917  5.338  4.401  3.714  3.509  1.399  0.903  0.547  1.126  2.063  2.750  2.955    3.217    2.359    1.820    1.533    1.198    0.756	0.539	 0.470  7.436  6.489  5.820  5.378  0.947  0.669  1.110
1.30  0.2223  3.5481   8.020  7.482  6.554  5.996  5.408  4.451  3.758  3.550  1.465  0.928  0.559  1.147  2.103  2.796  3.004    3.695    2.607    1.966    1.639    1.270    0.787	0.558	 0.486  7.555  6.579  5.897  5.448  0.976  0.682  1.131
1.30  0.2223  3.9811   8.178  7.613  6.672  6.107  5.511  4.529  3.827  3.614  1.505  0.941  0.565  1.161  2.143  2.845  3.058    4.250    2.926    2.179    1.806    1.389    0.840	0.591	 0.512  7.688  6.697  6.008  5.552  0.991  0.689  1.146
1.30  0.2223  4.4668   8.310  7.722  6.768  6.197  5.599  4.630  3.933  3.723  1.542  0.954  0.571  1.169  2.138  2.835  3.045    4.775    3.215    2.366    1.950    1.498    0.917	0.647	 0.563  7.799  6.793  6.097  5.640  1.006  0.696  1.153
1.30  0.2223  5.0119   8.376  7.805  6.862  6.295  5.700  4.730  4.035  3.825  1.515  0.943  0.567  1.161  2.131  2.827  3.036    5.046    3.451    2.565    2.122    1.635    1.000	0.707	 0.615  7.880  6.887  6.195  5.741  0.994  0.691  1.145
1.30  0.2223  5.6234   8.519  7.924  6.968  6.394  5.793  4.814  4.116  3.905  1.551  0.956  0.574  1.175  2.153  2.852  3.063    5.725    3.830    2.814    2.313    1.771    1.075	0.758	 0.659  8.001  6.993  6.294  5.834  1.008  0.699  1.159
1.30  0.2223  6.3096   8.685  8.067  7.100  6.520  5.912  4.924  4.223  4.011  1.585  0.967  0.580  1.188  2.176  2.877  3.089    6.635    4.349    3.162    2.584    1.965    1.184	0.832	 0.722  8.146  7.125  6.419  5.953  1.021  0.706  1.172
1.30  0.2223  7.0795   8.826  8.186  7.209  6.624  6.011  5.009  4.303  4.088  1.618  0.977  0.585  1.198  2.200  2.906  3.121    7.526    4.831    3.479    2.830    2.144    1.274	0.892	 0.772  8.267  7.234  6.523  6.053  1.032  0.712  1.181
1.30  0.2223  7.9433   8.970  8.301  7.310  6.718  6.100  5.084  4.373  4.155  1.660  0.991  0.592  1.211  2.226  2.937  3.155    8.553    5.345    3.802    3.074    2.316    1.359	0.947	 0.817  8.384  7.336  6.617  6.142  1.048  0.719  1.194
1.30  0.2223  8.9125   9.112  8.413  7.409  6.811  6.188  5.172  4.462  4.245  1.703  1.004  0.598  1.222  2.238  2.947  3.165    9.705    5.900    4.147    3.333    2.500    1.467	1.023	 0.884  8.498  7.435  6.709  6.230  1.063  0.727  1.205
1.30  0.2223 10.0000   9.246  8.521  7.506  6.901  6.273  5.259  4.551  4.336  1.740  1.015  0.604  1.233  2.247  2.955  3.170   10.928    6.486    4.513    3.606    2.693    1.582	1.106	 0.957  8.608  7.532  6.798  6.316  1.076  0.734  1.216
1.30  0.2223 11.2202   9.391  8.630  7.599  6.986  6.351  5.327  4.615  4.399  1.792  1.031  0.613  1.248  2.272  2.984  3.200   12.430    7.145    4.896    3.882    2.879    1.677	1.168	 1.010  8.721  7.625  6.882  6.394  1.095  0.743  1.231
1.30  0.2223 12.5893   9.546  8.748  7.700  7.079  6.436  5.400  4.685  4.466  1.846  1.048  0.621  1.264  2.300  3.015  3.234   14.281    7.930    5.351    4.210    3.102    1.787	1.240	 1.070  8.841  7.727  6.974  6.480  1.115  0.752  1.247
1.30  0.2223 14.1254   9.696  8.863  7.799  7.171  6.523  5.487  4.772  4.555  1.897  1.063  0.629  1.277  2.313  3.027  3.245   16.339    8.776    5.840    4.563    3.347    1.927	1.339	 1.156  8.959  7.826  7.065  6.567  1.132  0.761  1.259
1.30  0.2223 15.8489   9.849  8.984  7.909  7.273  6.616  5.566  4.847  4.628  1.940  1.075  0.636  1.292  2.343  3.061  3.281   18.730    9.778    6.434    4.993    3.633    2.065	1.429	 1.231  9.083  7.936  7.167  6.662  1.147  0.769  1.274
1.30  0.2223 17.7828   9.991  9.100  8.015  7.372  6.708  5.646  4.924  4.702  1.976  1.085  0.643  1.306  2.369  3.091  3.313   21.257   10.835    7.066    5.450    3.939    2.214	1.527	 1.314  9.200  8.042  7.266  6.754  1.158  0.776  1.288
